# Wavefront OBJ file made by Mineways version 9.00, http://mineways.com
# World: New World (3)
# Terrain file name: C:\Users\doeri\Downloads\minewaysV900\mineways\terrainExt.png
# Color scheme: Standard
# Mon Jul 19 23:10:33 2021

# Selection location min to max: 1, 10, -8 to 14, 22, 19
#   Non-empty selection location min to max: 1, 10, -8 to 14, 22, 19

# Set render type: Wavefront OBJ absolute indices
# Units for the model vertex data itself: meters

# 1702 vertices, 1760 faces (3520 triangles), 751 blocks, 28 billboards/bits
# block dimensions: X=14 by Y=13 (height) by Z=28 blocks
# Elevation shading: no
# Lighting: no
# Transparent water: no
# Map grid: no
# File type: Export separate textures to directory textures
# Texture output RGB: YES
# Texture output A: YES
# Texture output RGBA: YES
# Make groups objects: no
# Export separate objects: YES
# Individual blocks: no
#   Material per family: YES
#   Split by block type: no
# G3D full material: YES
# Make Z the up direction instead of Y: no
# Create composite overlay faces: no
# Center model: YES
# Export lesser blocks: YES
# Fatten lesser blocks: no
# Create block faces at the borders: YES
# Make tree leaves solid: no
# Use biomes: no
# Rotate model 0.000000 degrees
# Scale model by making each block 1000 mm high
# Data operation options:
#   Fill air bubbles: no; Seal off entrances: no; Fill in isolated tunnels in base of model: no
#   Connect parts sharing an edge: no; Connect corner tips: no; Weld all shared edges: no
#   Delete floating objects: trees and parts smaller than 16 blocks: no
#   Hollow out bottom of model, making the walls 1000 mm thick: no; Superhollow: no
# Melt snow blocks: no
#   Debug: show separate parts as colors: no
#   Debug: show weld blocks in bright colors: no

# Full world path: C:\Users\doeri\AppData\Roaming\.minecraft\saves\New World (3)
# Full terrainExt.png path: C:\Users\doeri\Downloads\minewaysV900\mineways\terrainExt.png
# Full current path: C:\Users\doeri\Downloads\minewaysV900\mineways

mtllib stage.mtl

o New_World_(3)__1_10_-8_to_14_22_19
vn -1 0 0
vn 0 -1 0
vn 0 0 -1
vn 1 0 0
vn 0 1 0
vn 0 0 1
vn -0.707107 0 -0.707107
vn -0.707107 0 0.707107
vn 0.707107 0 -0.707107
vn 0.707107 0 0.707107
vn -0.707107 -0.707107 0
vn 0 -0.707107 -0.707107
vn 0.707107 -0.707107 0
vn 0 -0.707107 0.707107
vn -0.707107 0.707107 0
vn 0 0.707107 -0.707107
vn 0.707107 0.707107 0
vn 0 0.707107 0.707107
vn -0.92388 0 -0.382683
vn -0.92388 0 0.382683
vn 0.92388 0 -0.382683
vn 0.92388 0 0.382683
vn -0.382683 0 -0.92388
vn -0.382683 0 0.92388
vn 0.382683 0 -0.92388
vn 0.382683 0 0.92388
vn -0.397273 0.9177 0
vn 0.397273 -0.9177 0
vn 0.397273 0.9177 0
vn -0.397273 -0.9177 0
vn 0 0.9177 -0.397273
vn 0 -0.9177 0.397273
vn 0 0.9177 0.397273
vn 0 -0.9177 -0.397273
vn -0.440932 0.897541 0
vn 0.440932 -0.897541 0
vn 0.440932 0.897541 0
vn -0.440932 -0.897541 0
vn 0 0.897541 -0.440932
vn 0 -0.897541 0.440932
vn 0 0.897541 0.440932
vn 0 -0.897541 -0.440932
vn 0.92388 -0.382683 0
vn -0.92388 0.382683 0
vt 0.000000000 0.000000000
vt 0.187500000 0.000000000
vt 0.250000000 0.000000000
vt 0.500000000 0.000000000
vt 0.937500000 0.000000000
vt 1.000000000 0.000000000
vt 0.000000000 0.062500000
vt 1.000000000 0.062500000
vt 0.000000000 0.125000000
vt 1.000000000 0.125000000
vt 0.000000000 0.187500000
vt 0.500000000 0.187500000
vt 0.000000000 0.375000000
vt 1.000000000 0.375000000
vt 0.000000000 0.500000000
vt 0.187500000 0.500000000
vt 0.250000000 0.500000000
vt 0.937500000 0.500000000
vt 1.000000000 0.500000000
vt 0.000000000 0.750000000
vt 0.187500000 0.750000000
vt 0.500000000 0.750000000
vt 1.000000000 0.750000000
vt 0.000000000 0.875000000
vt 1.000000000 0.875000000
vt 0.000000000 0.937500000
vt 0.500000000 0.937500000
vt 0.000000000 1.000000000
vt 1.000000000 1.000000000
v 2 2 0
v 2 2 -1
v 2 2.125 0
v 2 2.125 -1
v 1 2 0
v 1 2 -1
v 1 2.125 0
v 1 2.125 -1
v 1.25 2.125 -0.25
v 1.75 2.125 -0.25
v 1.25 2.875 -0.25
v 1.75 2.875 -0.25
v 1.25 2.125 -0.75
v 1.75 2.125 -0.75
v 1.25 2.875 -0.75
v 1.75 2.875 -0.75
v 1.88438 2.61138 0
v 1.88438 2.61138 -1
v 1.98005 2.84235 0
v 1.98005 2.84235 -1
v 1.13373 2.92231 0
v 1.13373 2.92231 -1
v 1.2294 3.15328 0
v 1.2294 3.15328 -1
v 2 2 2
v 2 2 1
v 2 2.125 2
v 2 2.125 1
v 1 2 2
v 1 2 1
v 1 2.125 2
v 1 2.125 1
v 1.25 2.125 1.75
v 1.75 2.125 1.75
v 1.25 2.875 1.75
v 1.75 2.875 1.75
v 1.25 2.125 1.25
v 1.75 2.125 1.25
v 1.25 2.875 1.25
v 1.75 2.875 1.25
v 1.88438 2.61138 2
v 1.88438 2.61138 1
v 1.98005 2.84235 2
v 1.98005 2.84235 1
v 1.13373 2.92231 2
v 1.13373 2.92231 1
v 1.2294 3.15328 2
v 1.2294 3.15328 1
v -7 0 -14
v -7 0 -13
v -7 1 -13
v -7 1 -14
v -6 0 -13
v -6 0 -14
v -6 1 -14
v -6 1 -13
v -7 0 -12
v -7 1 -12
v -6 0 -12
v -6 1 -12
v -7 0 -11
v -7 1 -11
v -6 0 -11
v -6 1 -11
v -7 0 -10
v -7 1 -10
v -6 0 -10
v -6 1 -10
v -7 0 -9
v -7 1 -9
v -6 0 -9
v -6 1 -9
v -7 0 -8
v -7 1 -8
v -6 0 -8
v -6 1 -8
v -7 0 -7
v -7 1 -7
v -6 0 -7
v -6 1 -7
v -7 0 -6
v -7 1 -6
v -6 0 -6
v -6 1 -6
v -7 0 -5
v -7 1 -5
v -6 0 -5
v -6 1 -5
v -7 0 -4
v -7 1 -4
v -6 0 -4
v -6 1 -4
v -7 0 -3
v -7 1 -3
v -6 0 -3
v -6 1 -3
v -7 0 -2
v -7 1 -2
v -6 0 -2
v -6 1 -2
v -7 0 -1
v -7 1 -1
v -6 0 -1
v -6 1 -1
v -7 0 0
v -7 1 0
v -6 0 0
v -6 1 0
v -7 0 1
v -7 1 1
v -6 0 1
v -6 1 1
v -7 0 2
v -7 1 2
v -6 0 2
v -6 1 2
v -7 0 3
v -7 1 3
v -6 0 3
v -6 1 3
v -7 0 4
v -7 1 4
v -6 0 4
v -6 1 4
v -7 0 5
v -7 1 5
v -6 0 5
v -6 1 5
v -7 0 6
v -7 1 6
v -6 0 6
v -6 1 6
v -7 0 7
v -7 1 7
v -6 0 7
v -6 1 7
v -7 0 8
v -7 1 8
v -6 0 8
v -6 1 8
v -7 0 9
v -7 1 9
v -6 0 9
v -6 1 9
v -7 0 10
v -7 1 10
v -6 0 10
v -6 1 10
v -7 0 11
v -7 1 11
v -6 0 11
v -6 1 11
v -7 0 12
v -7 1 12
v -6 0 12
v -6 1 12
v -7 0 13
v -7 1 13
v -6 0 13
v -6 1 13
v -7 0 14
v -7 1 14
v -6 0 14
v -6 1 14
v -5 0 -13
v -5 0 -14
v -5 1 -14
v -5 1 -13
v -5 0 -12
v -5 1 -12
v -5 0 -11
v -5 1 -11
v -5 0 -10
v -5 1 -10
v -5 0 -9
v -5 1 -9
v -5 0 -8
v -5 1 -8
v -5 0 -7
v -5 1 -7
v -5 0 -6
v -5 1 -6
v -5 0 -5
v -5 1 -5
v -5 0 -4
v -5 1 -4
v -5 0 -3
v -5 1 -3
v -5 0 -2
v -5 1 -2
v -5 0 -1
v -5 1 -1
v -5 0 0
v -5 1 0
v -5 0 1
v -5 1 1
v -5 0 2
v -5 1 2
v -5 0 3
v -5 1 3
v -5 0 4
v -5 1 4
v -5 0 5
v -5 1 5
v -5 0 6
v -5 1 6
v -5 0 7
v -5 1 7
v -5 0 8
v -5 1 8
v -5 0 9
v -5 1 9
v -5 0 10
v -5 1 10
v -5 0 11
v -5 1 11
v -5 0 12
v -5 1 12
v -5 0 13
v -5 1 13
v -5 0 14
v -5 1 14
v -4 0 -13
v -4 0 -14
v -4 1 -14
v -4 1 -13
v -4 0 -12
v -4 1 -12
v -4 0 -11
v -4 1 -11
v -4 0 -10
v -4 1 -10
v -4 0 -9
v -4 1 -9
v -4 0 -8
v -4 1 -8
v -4 0 -7
v -4 1 -7
v -4 0 -6
v -4 1 -6
v -4 0 -5
v -4 1 -5
v -4 0 -4
v -4 1 -4
v -4 0 -3
v -4 1 -3
v -4 0 -2
v -4 1 -2
v -4 0 -1
v -4 1 -1
v -4 0 0
v -4 1 0
v -4 0 1
v -4 1 1
v -4 0 2
v -4 1 2
v -4 0 3
v -4 1 3
v -4 0 4
v -4 1 4
v -4 0 5
v -4 1 5
v -4 0 6
v -4 1 6
v -4 0 7
v -4 1 7
v -4 0 8
v -4 1 8
v -4 0 9
v -4 1 9
v -4 0 10
v -4 1 10
v -4 0 11
v -4 1 11
v -4 0 12
v -4 1 12
v -4 0 13
v -4 1 13
v -4 0 14
v -4 1 14
v -3 0 -13
v -3 0 -14
v -3 1 -14
v -3 1 -13
v -3 0 -12
v -3 1 -12
v -3 0 -11
v -3 1 -11
v -3 0 -10
v -3 1 -10
v -3 0 -9
v -3 1 -9
v -3 0 -8
v -3 1 -8
v -3 0 -7
v -3 1 -7
v -3 0 -6
v -3 1 -6
v -3 0 -5
v -3 1 -5
v -3 0 -4
v -3 1 -4
v -3 0 -3
v -3 1 -3
v -3 0 -2
v -3 1 -2
v -3 0 -1
v -3 1 -1
v -3 0 0
v -3 1 0
v -3 0 1
v -3 1 1
v -3 0 2
v -3 1 2
v -3 0 3
v -3 1 3
v -3 0 4
v -3 1 4
v -3 0 5
v -3 1 5
v -3 0 6
v -3 1 6
v -3 0 7
v -3 1 7
v -3 0 8
v -3 1 8
v -3 0 9
v -3 1 9
v -3 0 10
v -3 1 10
v -3 0 11
v -3 1 11
v -3 0 12
v -3 1 12
v -3 0 13
v -3 1 13
v -3 0 14
v -3 1 14
v -2 0 -13
v -2 0 -14
v -2 1 -14
v -2 1 -13
v -2 0 -12
v -2 1 -12
v -2 0 -11
v -2 1 -11
v -2 0 -10
v -2 1 -10
v -2 0 -9
v -2 1 -9
v -2 0 -8
v -2 1 -8
v -2 0 -7
v -2 1 -7
v -2 0 -6
v -2 1 -6
v -2 0 -5
v -2 1 -5
v -2 0 -4
v -2 1 -4
v -2 0 -3
v -2 1 -3
v -2 0 -2
v -2 1 -2
v -2 0 -1
v -2 1 -1
v -2 0 0
v -2 1 0
v -2 0 1
v -2 1 1
v -2 0 2
v -2 1 2
v -2 0 3
v -2 1 3
v -2 0 4
v -2 1 4
v -2 0 5
v -2 1 5
v -2 0 6
v -2 1 6
v -2 0 7
v -2 1 7
v -2 0 8
v -2 1 8
v -2 0 9
v -2 1 9
v -2 0 10
v -2 1 10
v -2 0 11
v -2 1 11
v -2 0 12
v -2 1 12
v -2 0 13
v -2 1 13
v -2 0 14
v -2 1 14
v -1 0 -13
v -1 0 -14
v -1 1 -14
v -1 1 -13
v -1 0 -12
v -1 1 -12
v -1 0 -11
v -1 1 -11
v -1 0 -10
v -1 1 -10
v -1 0 -9
v -1 1 -9
v -1 0 -8
v -1 1 -8
v -1 0 -7
v -1 1 -7
v -1 0 -6
v -1 1 -6
v -1 0 -5
v -1 1 -5
v -1 0 -4
v -1 1 -4
v -1 0 -3
v -1 1 -3
v -1 0 -2
v -1 1 -2
v -1 0 -1
v -1 1 -1
v -1 0 0
v -1 1 0
v -1 0 1
v -1 1 1
v -1 0 2
v -1 1 2
v -1 0 3
v -1 1 3
v -1 0 4
v -1 1 4
v -1 0 5
v -1 1 5
v -1 0 6
v -1 1 6
v -1 0 7
v -1 1 7
v -1 0 8
v -1 1 8
v -1 0 9
v -1 1 9
v -1 0 10
v -1 1 10
v -1 0 11
v -1 1 11
v -1 0 12
v -1 1 12
v -1 0 13
v -1 1 13
v -1 0 14
v -1 1 14
v 0 0 -13
v 0 0 -14
v 0 1 -14
v 0 1 -13
v 0 0 -12
v 0 1 -12
v 0 0 -11
v 0 1 -11
v 0 0 -10
v 0 1 -10
v 0 0 -9
v 0 1 -9
v 0 0 -8
v 0 1 -8
v 0 0 -7
v 0 1 -7
v 0 0 -6
v 0 1 -6
v 0 0 -5
v 0 1 -5
v 0 0 -4
v 0 1 -4
v 0 0 -3
v 0 1 -3
v 0 0 -2
v 0 1 -2
v 0 0 -1
v 0 1 -1
v 0 0 0
v 0 1 0
v 0 0 1
v 0 1 1
v 0 0 2
v 0 1 2
v 0 0 3
v 0 1 3
v 0 0 4
v 0 1 4
v 0 0 5
v 0 1 5
v 0 0 6
v 0 1 6
v 0 0 7
v 0 1 7
v 0 0 8
v 0 1 8
v 0 0 9
v 0 1 9
v 0 0 10
v 0 1 10
v 0 0 11
v 0 1 11
v 0 0 12
v 0 1 12
v 0 0 13
v 0 1 13
v 0 0 14
v 0 1 14
v 1 0 -13
v 1 0 -14
v 1 1 -14
v 1 1 -13
v 1 0 -12
v 1 1 -12
v 1 0 -11
v 1 1 -11
v 1 0 -10
v 1 1 -10
v 1 0 -9
v 1 1 -9
v 1 0 -8
v 1 1 -8
v 1 0 -7
v 1 1 -7
v 1 0 -6
v 1 1 -6
v 1 0 -5
v 1 1 -5
v 1 0 -4
v 1 1 -4
v 1 0 -3
v 1 1 -3
v 1 0 -2
v 1 1 -2
v 0 2 -1
v 0 2 -2
v 1 1 -1
v 1 2 -2
v 1 2 -1
v 0 2 0
v 1 1 0
v 1 2 0
v 0 2 1
v 1 1 1
v 1 2 1
v 0 2 2
v 1 1 2
v 1 2 2
v 0 2 3
v 1 1 3
v 1 2 3
v 1 0 4
v 1 0 3
v 1 1 4
v 1 0 5
v 1 1 5
v 1 0 6
v 1 1 6
v 1 0 7
v 1 1 7
v 1 0 8
v 1 1 8
v 1 0 9
v 1 1 9
v 1 0 10
v 1 1 10
v 1 0 11
v 1 1 11
v 1 0 12
v 1 1 12
v 1 0 13
v 1 1 13
v 1 0 14
v 1 1 14
v 2 0 -13
v 2 0 -14
v 2 1 -14
v 2 1 -13
v 2 0 -12
v 2 1 -12
v 2 0 -11
v 2 1 -11
v 2 0 -10
v 2 1 -10
v 2 0 -9
v 2 1 -9
v 2 0 -8
v 2 1 -8
v 2 0 -7
v 2 1 -7
v 2 0 -6
v 2 1 -6
v 2 0 -5
v 2 1 -5
v 2 0 -4
v 2 1 -4
v 1 2 -3
v 1 2 -4
v 2 1 -3
v 2 2 -4
v 2 2 -3
v 2 1 -2
v 2 2 -2
v 2 1 -1
v 2 2 -1
v 2 1 0
v 2 2 0
v 2 1 1
v 2 2 1
v 2 1 2
v 2 2 2
v 2 1 3
v 2 2 3
v 1 2 4
v 2 1 4
v 2 2 4
v 1 2 5
v 2 1 5
v 2 2 5
v 2 0 6
v 2 0 5
v 2 1 6
v 2 0 7
v 2 1 7
v 2 0 8
v 2 1 8
v 2 0 9
v 2 1 9
v 2 0 10
v 2 1 10
v 2 0 11
v 2 1 11
v 2 0 12
v 2 1 12
v 2 0 13
v 2 1 13
v 2 0 14
v 2 1 14
v 3 0 -13
v 3 0 -14
v 3 1 -14
v 3 1 -13
v 3 0 -12
v 3 1 -12
v 3 0 -11
v 3 1 -11
v 3 0 -10
v 3 1 -10
v 3 0 -9
v 3 1 -9
v 3 0 -8
v 3 1 -8
v 3 0 -7
v 3 1 -7
v 3 0 -6
v 3 1 -6
v 3 0 -5
v 3 1 -5
v 2 2 -5
v 3 1 -4
v 3 2 -5
v 3 2 -4
v 3 1 -3
v 3 2 -3
v 3 1 -2
v 3 2 -2
v 3 1 -1
v 3 2 -1
v 3 1 0
v 3 2 0
v 3 1 1
v 3 2 1
v 3 1 2
v 3 2 2
v 3 1 3
v 3 2 3
v 3 1 4
v 3 2 4
v 3 1 5
v 3 2 5
v 2 2 6
v 3 1 6
v 3 2 6
v 3 0 7
v 3 0 6
v 3 1 7
v 3 0 8
v 3 1 8
v 3 0 9
v 3 1 9
v 3 0 10
v 3 1 10
v 3 0 11
v 3 1 11
v 3 0 12
v 3 1 12
v 3 0 13
v 3 1 13
v 3 0 14
v 3 1 14
v 4 0 -13
v 4 0 -14
v 4 1 -14
v 4 1 -13
v 4 0 -12
v 4 1 -12
v 4 0 -11
v 4 1 -11
v 4 0 -10
v 4 1 -10
v 4 0 -9
v 4 1 -9
v 4 0 -8
v 4 1 -8
v 4 0 -7
v 4 1 -7
v 4 0 -6
v 4 1 -6
v 4 0 -5
v 4 1 -5
v 4 1 -4
v 4 2 -5
v 4 2 -4
v 4 1 -3
v 4 2 -3
v 4 1 -2
v 4 2 -2
v 4 1 -1
v 4 2 -1
v 4 1 0
v 4 2 0
v 4 1 1
v 4 2 1
v 4 1 2
v 4 2 2
v 4 1 3
v 4 2 3
v 4 1 4
v 4 2 4
v 4 1 5
v 4 2 5
v 4 1 6
v 4 2 6
v 4 0 7
v 4 0 6
v 4 1 7
v 4 0 8
v 4 1 8
v 4 0 9
v 4 1 9
v 4 0 10
v 4 1 10
v 4 0 11
v 4 1 11
v 4 0 12
v 4 1 12
v 4 0 13
v 4 1 13
v 4 0 14
v 4 1 14
v 5 0 -13
v 5 0 -14
v 5 1 -14
v 5 1 -13
v 5 0 -12
v 5 1 -12
v 5 0 -11
v 5 1 -11
v 5 0 -10
v 5 1 -10
v 5 0 -9
v 5 1 -9
v 5 0 -8
v 5 1 -8
v 5 0 -7
v 5 1 -7
v 5 0 -6
v 5 1 -6
v 5 0 -5
v 5 1 -5
v 5 1 -4
v 5 2 -5
v 4 3 -4
v 4 3 -5
v 5 3 -5
v 5 2 -4
v 5 3 -4
v 4 4 -4
v 4 4 -5
v 5 4 -5
v 5 4 -4
v 4 5 -4
v 4 5 -5
v 5 5 -5
v 5 5 -4
v 4 6 -4
v 4 6 -5
v 5 6 -5
v 5 6 -4
v 4 7 -4
v 4 7 -5
v 5 7 -5
v 5 7 -4
v 4 8 -4
v 4 8 -5
v 5 8 -5
v 5 8 -4
v 4 9 -4
v 4 9 -5
v 5 9 -5
v 5 9 -4
v 5 1 -3
v 5 2 -3
v 4 8 -3
v 4 9 -3
v 5 8 -3
v 5 9 -3
v 4 10 -3
v 4 10 -4
v 5 10 -4
v 5 10 -3
v 5 1 -2
v 5 2 -2
v 4 9 -2
v 4 10 -2
v 5 9 -2
v 5 10 -2
v 5 1 -1
v 5 2 -1
v 4 9 -1
v 4 10 -1
v 5 9 -1
v 5 10 -1
v 4 11 -1
v 4 11 -2
v 5 11 -2
v 5 11 -1
v 5 1 0
v 5 2 0
v 4 10 0
v 4 11 0
v 5 10 0
v 5 11 0
v 5 1 1
v 5 2 1
v 4 10 1
v 4 11 1
v 5 10 1
v 5 11 1
v 5 1 2
v 5 2 2
v 4 10 2
v 4 11 2
v 5 10 2
v 5 11 2
v 5 1 3
v 5 2 3
v 4 9 2
v 4 9 3
v 4 10 3
v 5 9 3
v 5 9 2
v 4 11 3
v 5 10 3
v 5 11 3
v 5 1 4
v 5 2 4
v 4 9 4
v 4 10 4
v 5 9 4
v 5 10 4
v 5 1 5
v 5 2 5
v 4 8 4
v 4 8 5
v 4 9 5
v 5 8 5
v 5 8 4
v 4 10 5
v 5 10 5
v 5 9 5
v 5 1 6
v 5 2 6
v 4 3 6
v 4 3 5
v 5 3 5
v 5 3 6
v 4 4 6
v 4 4 5
v 5 4 5
v 5 4 6
v 4 5 6
v 4 5 5
v 5 5 5
v 5 5 6
v 4 6 6
v 4 6 5
v 5 6 5
v 5 6 6
v 4 7 6
v 4 7 5
v 5 7 5
v 5 7 6
v 4 8 6
v 5 8 6
v 4 9 6
v 5 9 6
v 5 0 7
v 5 0 6
v 5 1 7
v 5 0 8
v 5 1 8
v 5 0 9
v 5 1 9
v 5 0 10
v 5 1 10
v 5 0 11
v 5 1 11
v 5 0 12
v 5 1 12
v 5 0 13
v 5 1 13
v 5 0 14
v 5 1 14
v 6 0 -13
v 6 0 -14
v 6 1 -14
v 6 1 -13
v 5 2 -13
v 5 2 -14
v 6 2 -14
v 6 2 -13
v 5 3 -13
v 5 3 -14
v 6 3 -14
v 6 3 -13
v 5 4 -13
v 5 4 -14
v 6 4 -14
v 6 4 -13
v 5 5 -13
v 5 5 -14
v 6 5 -14
v 6 5 -13
v 5 6 -13
v 5 6 -14
v 6 6 -14
v 6 6 -13
v 5 7 -13
v 5 7 -14
v 6 7 -14
v 6 7 -13
v 5 8 -13
v 5 8 -14
v 6 8 -14
v 6 8 -13
v 5 9 -13
v 5 9 -14
v 6 9 -14
v 6 9 -13
v 5 10 -13
v 5 10 -14
v 6 10 -14
v 6 10 -13
v 5 11 -13
v 5 11 -14
v 6 11 -14
v 6 11 -13
v 5 12 -13
v 5 12 -14
v 6 12 -14
v 6 12 -13
v 5 13 -13
v 5 13 -14
v 6 13 -14
v 6 13 -13
v 6 0 -12
v 6 1 -12
v 5 2 -12
v 6 2 -12
v 5 3 -12
v 6 3 -12
v 5 4 -12
v 6 4 -12
v 5 5 -12
v 6 5 -12
v 5 6 -12
v 6 6 -12
v 5 7 -12
v 6 7 -12
v 5 8 -12
v 6 8 -12
v 5 9 -12
v 6 9 -12
v 5 10 -12
v 6 10 -12
v 5 11 -12
v 6 11 -12
v 5 12 -12
v 6 12 -12
v 5 13 -12
v 6 13 -12
v 6 0 -11
v 6 1 -11
v 5 2 -11
v 6 2 -11
v 5 3 -11
v 6 3 -11
v 5 4 -11
v 6 4 -11
v 5 5 -11
v 6 5 -11
v 5 6 -11
v 6 6 -11
v 5 7 -11
v 6 7 -11
v 5 8 -11
v 6 8 -11
v 5 9 -11
v 6 9 -11
v 5 10 -11
v 6 10 -11
v 5 11 -11
v 6 11 -11
v 5 12 -11
v 6 12 -11
v 5 13 -11
v 6 13 -11
v 6 0 -10
v 6 1 -10
v 5 2 -10
v 6 2 -10
v 5 3 -10
v 6 3 -10
v 5 4 -10
v 6 4 -10
v 5 5 -10
v 6 5 -10
v 5 6 -10
v 6 6 -10
v 5 7 -10
v 6 7 -10
v 5 8 -10
v 6 8 -10
v 5 9 -10
v 6 9 -10
v 5 10 -10
v 6 10 -10
v 5 11 -10
v 6 11 -10
v 5 12 -10
v 6 12 -10
v 5 13 -10
v 6 13 -10
v 6 0 -9
v 6 1 -9
v 5 2 -9
v 6 2 -9
v 5 3 -9
v 6 3 -9
v 5 4 -9
v 6 4 -9
v 5 5 -9
v 6 5 -9
v 5 6 -9
v 6 6 -9
v 5 7 -9
v 6 7 -9
v 5 8 -9
v 6 8 -9
v 5 9 -9
v 6 9 -9
v 5 10 -9
v 6 10 -9
v 5 11 -9
v 6 11 -9
v 5 12 -9
v 6 12 -9
v 5 13 -9
v 6 13 -9
v 6 0 -8
v 6 1 -8
v 5 2 -8
v 6 2 -8
v 5 3 -8
v 6 3 -8
v 5 4 -8
v 6 4 -8
v 5 5 -8
v 6 5 -8
v 5 6 -8
v 6 6 -8
v 5 7 -8
v 6 7 -8
v 5 8 -8
v 6 8 -8
v 5 9 -8
v 6 9 -8
v 5 10 -8
v 6 10 -8
v 5 11 -8
v 6 11 -8
v 5 12 -8
v 6 12 -8
v 5 13 -8
v 6 13 -8
v 6 0 -7
v 6 1 -7
v 5 2 -7
v 6 2 -7
v 5 3 -7
v 6 3 -7
v 5 4 -7
v 6 4 -7
v 5 5 -7
v 6 5 -7
v 5 6 -7
v 6 6 -7
v 5 7 -7
v 6 7 -7
v 5 8 -7
v 6 8 -7
v 5 9 -7
v 6 9 -7
v 5 10 -7
v 6 10 -7
v 5 11 -7
v 6 11 -7
v 5 12 -7
v 6 12 -7
v 5 13 -7
v 6 13 -7
v 6 0 -6
v 6 1 -6
v 5 2 -6
v 6 2 -6
v 5 3 -6
v 6 3 -6
v 5 4 -6
v 6 4 -6
v 5 5 -6
v 6 5 -6
v 5 6 -6
v 6 6 -6
v 5 7 -6
v 6 7 -6
v 5 8 -6
v 6 8 -6
v 5 9 -6
v 6 9 -6
v 5 10 -6
v 6 10 -6
v 5 11 -6
v 6 11 -6
v 5 12 -6
v 6 12 -6
v 5 13 -6
v 6 13 -6
v 6 0 -5
v 6 1 -5
v 6 2 -5
v 6 3 -5
v 6 4 -5
v 6 5 -5
v 6 6 -5
v 6 7 -5
v 6 8 -5
v 6 9 -5
v 5 10 -5
v 6 10 -5
v 5 11 -5
v 6 11 -5
v 5 12 -5
v 6 12 -5
v 5 13 -5
v 6 13 -5
v 5 0 -4
v 6 0 -4
v 6 1 -4
v 6 2 -4
v 6 3 -4
v 6 4 -4
v 6 5 -4
v 6 6 -4
v 6 7 -4
v 6 8 -4
v 6 9 -4
v 6 10 -4
v 5 11 -4
v 6 11 -4
v 5 12 -4
v 6 12 -4
v 5 13 -4
v 6 13 -4
v 5 0 -3
v 6 0 -3
v 6 1 -3
v 6 2 -3
v 5 3 -3
v 6 3 -3
v 5 4 -3
v 6 4 -3
v 5 5 -3
v 6 5 -3
v 5 6 -3
v 6 6 -3
v 5 7 -3
v 6 7 -3
v 6 8 -3
v 6 9 -3
v 6 10 -3
v 5 11 -3
v 6 11 -3
v 5 12 -3
v 6 12 -3
v 5 13 -3
v 6 13 -3
v 5 0 -2
v 6 0 -2
v 6 1 -2
v 6 2 -2
v 6 10 -2
v 6 11 -2
v 5 12 -2
v 6 12 -2
v 5 13 -2
v 6 13 -2
v 5 0 -1
v 6 0 -1
v 6 1 -1
v 6 2 -1
v 5 12 -1
v 6 11 -1
v 6 12 -1
v 5 13 -1
v 6 13 -1
v 5 0 0
v 6 0 0
v 6 1 0
v 6 2 0
v 5 3 0
v 5 3 -1
v 6 3 -1
v 6 3 0
v 5 4 0
v 5 4 -1
v 6 4 -1
v 6 4 0
v 5 5 0
v 5 5 -1
v 6 5 -1
v 6 5 0
v 5 6 0
v 5 6 -1
v 6 6 -1
v 6 6 0
v 5 7 0
v 5 7 -1
v 6 7 -1
v 6 7 0
v 5 8 0
v 5 8 -1
v 6 8 -1
v 6 8 0
v 5 9 0
v 6 9 -1
v 6 9 0
v 6 10 -1
v 6 10 0
v 6 11 0
v 5 12 0
v 6 12 0
v 5 13 0
v 6 13 0
v 5 0 1
v 6 0 1
v 6 1 1
v 6 2 1
v 5 12 1
v 6 11 1
v 6 12 1
v 5 13 1
v 6 13 1
v 5 0 2
v 6 0 2
v 6 1 2
v 6 2 2
v 5 3 2
v 5 3 1
v 6 3 1
v 5 4 2
v 5 4 1
v 6 4 1
v 5 5 2
v 5 5 1
v 6 5 1
v 5 6 2
v 5 6 1
v 6 6 1
v 5 7 2
v 5 7 1
v 6 7 1
v 5 8 2
v 5 8 1
v 6 8 1
v 5 9 1
v 6 9 1
v 6 10 1
v 6 10 2
v 6 11 2
v 5 12 2
v 6 12 2
v 5 13 2
v 6 13 2
v 5 0 3
v 6 0 3
v 6 1 3
v 6 2 3
v 5 3 3
v 6 3 3
v 5 4 3
v 6 4 3
v 5 5 3
v 6 5 3
v 5 6 3
v 6 6 3
v 5 7 3
v 6 7 3
v 5 8 3
v 6 8 3
v 6 9 3
v 6 10 3
v 5 12 3
v 6 11 3
v 6 12 3
v 5 13 3
v 6 13 3
v 5 0 4
v 6 0 4
v 6 1 4
v 6 2 4
v 5 11 4
v 6 10 4
v 6 11 4
v 5 12 4
v 6 12 4
v 5 13 4
v 6 13 4
v 5 0 5
v 6 0 5
v 6 1 5
v 6 2 5
v 5 3 4
v 6 3 4
v 5 4 4
v 6 4 4
v 5 5 4
v 6 5 4
v 5 6 4
v 6 6 4
v 5 7 4
v 6 7 4
v 6 8 4
v 6 9 4
v 5 11 5
v 6 10 5
v 6 11 5
v 5 12 5
v 6 12 5
v 5 13 5
v 6 13 5
v 6 0 6
v 6 1 6
v 6 2 6
v 6 3 5
v 6 3 6
v 6 4 5
v 6 4 6
v 6 5 5
v 6 5 6
v 6 6 5
v 6 6 6
v 6 7 5
v 6 7 6
v 6 8 5
v 6 8 6
v 6 9 5
v 6 9 6
v 5 10 6
v 6 10 6
v 5 11 6
v 6 11 6
v 5 12 6
v 6 12 6
v 5 13 6
v 6 13 6
v 6 0 7
v 6 1 7
v 5 2 7
v 6 2 7
v 5 3 7
v 6 3 7
v 5 4 7
v 6 4 7
v 5 5 7
v 6 5 7
v 5 6 7
v 6 6 7
v 5 7 7
v 6 7 7
v 5 8 7
v 6 8 7
v 5 9 7
v 6 9 7
v 5 10 7
v 6 10 7
v 5 11 7
v 6 11 7
v 5 12 7
v 6 12 7
v 5 13 7
v 6 13 7
v 6 0 8
v 6 1 8
v 5 2 8
v 6 2 8
v 5 3 8
v 6 3 8
v 5 4 8
v 6 4 8
v 5 5 8
v 6 5 8
v 5 6 8
v 6 6 8
v 5 7 8
v 6 7 8
v 5 8 8
v 6 8 8
v 5 9 8
v 6 9 8
v 5 10 8
v 6 10 8
v 5 11 8
v 6 11 8
v 5 12 8
v 6 12 8
v 5 13 8
v 6 13 8
v 6 0 9
v 6 1 9
v 5 2 9
v 6 2 9
v 5 3 9
v 6 3 9
v 5 4 9
v 6 4 9
v 5 5 9
v 6 5 9
v 5 6 9
v 6 6 9
v 5 7 9
v 6 7 9
v 5 8 9
v 6 8 9
v 5 9 9
v 6 9 9
v 5 10 9
v 6 10 9
v 5 11 9
v 6 11 9
v 5 12 9
v 6 12 9
v 5 13 9
v 6 13 9
v 6 0 10
v 6 1 10
v 5 2 10
v 6 2 10
v 5 3 10
v 6 3 10
v 5 4 10
v 6 4 10
v 5 5 10
v 6 5 10
v 5 6 10
v 6 6 10
v 5 7 10
v 6 7 10
v 5 8 10
v 6 8 10
v 5 9 10
v 6 9 10
v 5 10 10
v 6 10 10
v 5 11 10
v 6 11 10
v 5 12 10
v 6 12 10
v 5 13 10
v 6 13 10
v 6 0 11
v 6 1 11
v 5 2 11
v 6 2 11
v 5 3 11
v 6 3 11
v 5 4 11
v 6 4 11
v 5 5 11
v 6 5 11
v 5 6 11
v 6 6 11
v 5 7 11
v 6 7 11
v 5 8 11
v 6 8 11
v 5 9 11
v 6 9 11
v 5 10 11
v 6 10 11
v 5 11 11
v 6 11 11
v 5 12 11
v 6 12 11
v 5 13 11
v 6 13 11
v 6 0 12
v 6 1 12
v 5 2 12
v 6 2 12
v 5 3 12
v 6 3 12
v 5 4 12
v 6 4 12
v 5 5 12
v 6 5 12
v 5 6 12
v 6 6 12
v 5 7 12
v 6 7 12
v 5 8 12
v 6 8 12
v 5 9 12
v 6 9 12
v 5 10 12
v 6 10 12
v 5 11 12
v 6 11 12
v 5 12 12
v 6 12 12
v 5 13 12
v 6 13 12
v 6 0 13
v 6 1 13
v 5 2 13
v 6 2 13
v 5 3 13
v 6 3 13
v 5 4 13
v 6 4 13
v 5 5 13
v 6 5 13
v 5 6 13
v 6 6 13
v 5 7 13
v 6 7 13
v 5 8 13
v 6 8 13
v 5 9 13
v 6 9 13
v 5 10 13
v 6 10 13
v 5 11 13
v 6 11 13
v 5 12 13
v 6 12 13
v 5 13 13
v 6 13 13
v 6 0 14
v 6 1 14
v 5 2 14
v 6 2 14
v 5 3 14
v 6 3 14
v 5 4 14
v 6 4 14
v 5 5 14
v 6 5 14
v 5 6 14
v 6 6 14
v 5 7 14
v 6 7 14
v 5 8 14
v 6 8 14
v 5 9 14
v 6 9 14
v 5 10 14
v 6 10 14
v 5 11 14
v 6 11 14
v 5 12 14
v 6 12 14
v 5 13 14
v 6 13 14
v 6 3 -2
v 7 2 -2
v 7 2 -3
v 7 3 -3
v 7 3 -2
v 6 4 -2
v 7 4 -3
v 7 4 -2
v 6 5 -2
v 7 5 -3
v 7 5 -2
v 6 6 -2
v 7 6 -3
v 7 6 -2
v 6 7 -2
v 7 7 -3
v 7 7 -2
v 6 8 -2
v 7 8 -3
v 7 8 -2
v 6 9 -2
v 7 9 -3
v 7 9 -2
v 7 10 -3
v 7 10 -2
v 7 2 -1
v 7 3 -1
v 7 4 -1
v 7 5 -1
v 7 6 -1
v 7 7 -1
v 7 8 -1
v 7 9 -1
v 7 10 -1
v 7 11 -2
v 7 11 -1
v 7 2 1
v 7 2 0
v 7 3 0
v 7 3 1
v 7 4 0
v 7 4 1
v 7 5 0
v 7 5 1
v 7 6 0
v 7 6 1
v 7 7 0
v 7 7 1
v 7 8 0
v 7 8 1
v 7 9 0
v 7 9 1
v 7 10 0
v 7 10 1
v 7 11 0
v 7 11 1
v 7 2 2
v 7 3 2
v 7 4 2
v 7 5 2
v 7 6 2
v 7 7 2
v 7 8 2
v 7 9 2
v 7 10 2
v 7 2 3
v 7 3 3
v 7 4 3
v 7 5 3
v 7 6 3
v 7 7 3
v 7 8 3
v 7 9 3
v 7 10 3
v 7 11 2
v 7 11 3
v 7 2 4
v 7 3 4
v 7 4 4
v 7 5 4
v 7 6 4
v 7 7 4
v 7 8 4
v 7 9 4
v 7 10 4
v 7 2 5
v 7 3 5
v 7 4 5
v 7 5 5
v 7 6 5
v 7 7 5
v 7 8 5
v 7 9 5
v 7 10 5

g Polished_Blackstone
usemtl polished_blackstone
f 765/1/2 766/28/2 930/29/2 929/6/2
f 766/6/3 767/29/3 931/28/3 930/1/3
f 929/1/4 930/6/4 931/29/4 932/28/4
f 768/6/1 933/29/1 934/28/1 767/1/1
f 767/6/3 934/29/3 935/28/3 931/1/3
f 932/1/4 931/6/4 935/29/4 936/28/4
f 933/6/1 937/29/1 938/28/1 934/1/1
f 934/6/3 938/29/3 939/28/3 935/1/3
f 936/1/4 935/6/4 939/29/4 940/28/4
f 937/6/1 941/29/1 942/28/1 938/1/1
f 938/6/3 942/29/3 943/28/3 939/1/3
f 940/1/4 939/6/4 943/29/4 944/28/4
f 941/6/1 945/29/1 946/28/1 942/1/1
f 942/6/3 946/29/3 947/28/3 943/1/3
f 944/1/4 943/6/4 947/29/4 948/28/4
f 945/6/1 949/29/1 950/28/1 946/1/1
f 946/6/3 950/29/3 951/28/3 947/1/3
f 948/1/4 947/6/4 951/29/4 952/28/4
f 949/6/1 953/29/1 954/28/1 950/1/1
f 950/6/3 954/29/3 955/28/3 951/1/3
f 952/1/4 951/6/4 955/29/4 956/28/4
f 953/6/1 957/29/1 958/28/1 954/1/1
f 954/6/3 958/29/3 959/28/3 955/1/3
f 956/1/4 955/6/4 959/29/4 960/28/4
f 957/6/1 961/29/1 962/28/1 958/1/1
f 958/6/3 962/29/3 963/28/3 959/1/3
f 960/1/4 959/6/4 963/29/4 964/28/4
f 961/6/1 965/29/1 966/28/1 962/1/1
f 962/6/3 966/29/3 967/28/3 963/1/3
f 964/1/4 963/6/4 967/29/4 968/28/4
f 965/6/1 969/29/1 970/28/1 966/1/1
f 966/6/3 970/29/3 971/28/3 967/1/3
f 968/1/4 967/6/4 971/29/4 972/28/4
f 969/6/1 973/29/1 974/28/1 970/1/1
f 970/6/3 974/29/3 975/28/3 971/1/3
f 972/1/4 971/6/4 975/29/4 976/28/4
f 973/6/1 977/29/1 978/28/1 974/1/1
f 974/6/3 978/29/3 979/28/3 975/1/3
f 976/1/4 975/6/4 979/29/4 980/28/4
f 977/1/5 980/6/5 979/29/5 978/28/5
f 769/1/2 765/28/2 929/29/2 981/6/2
f 981/1/4 929/6/4 932/29/4 982/28/4
f 770/6/1 983/29/1 933/28/1 768/1/1
f 982/1/4 932/6/4 936/29/4 984/28/4
f 983/6/1 985/29/1 937/28/1 933/1/1
f 984/1/4 936/6/4 940/29/4 986/28/4
f 985/6/1 987/29/1 941/28/1 937/1/1
f 986/1/4 940/6/4 944/29/4 988/28/4
f 987/6/1 989/29/1 945/28/1 941/1/1
f 988/1/4 944/6/4 948/29/4 990/28/4
f 989/6/1 991/29/1 949/28/1 945/1/1
f 990/1/4 948/6/4 952/29/4 992/28/4
f 991/6/1 993/29/1 953/28/1 949/1/1
f 992/1/4 952/6/4 956/29/4 994/28/4
f 993/6/1 995/29/1 957/28/1 953/1/1
f 994/1/4 956/6/4 960/29/4 996/28/4
f 995/6/1 997/29/1 961/28/1 957/1/1
f 996/1/4 960/6/4 964/29/4 998/28/4
f 997/6/1 999/29/1 965/28/1 961/1/1
f 998/1/4 964/6/4 968/29/4 1000/28/4
f 999/6/1 1001/29/1 969/28/1 965/1/1
f 1000/1/4 968/6/4 972/29/4 1002/28/4
f 1001/6/1 1003/29/1 973/28/1 969/1/1
f 1002/1/4 972/6/4 976/29/4 1004/28/4
f 1003/6/1 1005/29/1 977/28/1 973/1/1
f 1004/1/4 976/6/4 980/29/4 1006/28/4
f 1005/1/5 1006/6/5 980/29/5 977/28/5
f 771/1/2 769/28/2 981/29/2 1007/6/2
f 1007/1/4 981/6/4 982/29/4 1008/28/4
f 772/6/1 1009/29/1 983/28/1 770/1/1
f 1008/1/4 982/6/4 984/29/4 1010/28/4
f 1009/6/1 1011/29/1 985/28/1 983/1/1
f 1010/1/4 984/6/4 986/29/4 1012/28/4
f 1011/6/1 1013/29/1 987/28/1 985/1/1
f 1012/1/4 986/6/4 988/29/4 1014/28/4
f 1013/6/1 1015/29/1 989/28/1 987/1/1
f 1014/1/4 988/6/4 990/29/4 1016/28/4
f 1015/6/1 1017/29/1 991/28/1 989/1/1
f 1016/1/4 990/6/4 992/29/4 1018/28/4
f 1017/6/1 1019/29/1 993/28/1 991/1/1
f 1018/1/4 992/6/4 994/29/4 1020/28/4
f 1019/6/1 1021/29/1 995/28/1 993/1/1
f 1020/1/4 994/6/4 996/29/4 1022/28/4
f 1021/6/1 1023/29/1 997/28/1 995/1/1
f 1022/1/4 996/6/4 998/29/4 1024/28/4
f 1023/6/1 1025/29/1 999/28/1 997/1/1
f 1024/1/4 998/6/4 1000/29/4 1026/28/4
f 1025/6/1 1027/29/1 1001/28/1 999/1/1
f 1026/1/4 1000/6/4 1002/29/4 1028/28/4
f 1027/6/1 1029/29/1 1003/28/1 1001/1/1
f 1028/1/4 1002/6/4 1004/29/4 1030/28/4
f 1029/6/1 1031/29/1 1005/28/1 1003/1/1
f 1030/1/4 1004/6/4 1006/29/4 1032/28/4
f 1031/1/5 1032/6/5 1006/29/5 1005/28/5
f 773/1/2 771/28/2 1007/29/2 1033/6/2
f 1033/1/4 1007/6/4 1008/29/4 1034/28/4
f 774/6/1 1035/29/1 1009/28/1 772/1/1
f 1034/1/4 1008/6/4 1010/29/4 1036/28/4
f 1035/6/1 1037/29/1 1011/28/1 1009/1/1
f 1036/1/4 1010/6/4 1012/29/4 1038/28/4
f 1037/6/1 1039/29/1 1013/28/1 1011/1/1
f 1038/1/4 1012/6/4 1014/29/4 1040/28/4
f 1039/6/1 1041/29/1 1015/28/1 1013/1/1
f 1040/1/4 1014/6/4 1016/29/4 1042/28/4
f 1041/6/1 1043/29/1 1017/28/1 1015/1/1
f 1042/1/4 1016/6/4 1018/29/4 1044/28/4
f 1043/6/1 1045/29/1 1019/28/1 1017/1/1
f 1044/1/4 1018/6/4 1020/29/4 1046/28/4
f 1045/6/1 1047/29/1 1021/28/1 1019/1/1
f 1046/1/4 1020/6/4 1022/29/4 1048/28/4
f 1047/6/1 1049/29/1 1023/28/1 1021/1/1
f 1048/1/4 1022/6/4 1024/29/4 1050/28/4
f 1049/6/1 1051/29/1 1025/28/1 1023/1/1
f 1050/1/4 1024/6/4 1026/29/4 1052/28/4
f 1051/6/1 1053/29/1 1027/28/1 1025/1/1
f 1052/1/4 1026/6/4 1028/29/4 1054/28/4
f 1053/6/1 1055/29/1 1029/28/1 1027/1/1
f 1054/1/4 1028/6/4 1030/29/4 1056/28/4
f 1055/6/1 1057/29/1 1031/28/1 1029/1/1
f 1056/1/4 1030/6/4 1032/29/4 1058/28/4
f 1057/1/5 1058/6/5 1032/29/5 1031/28/5
f 775/1/2 773/28/2 1033/29/2 1059/6/2
f 1059/1/4 1033/6/4 1034/29/4 1060/28/4
f 776/6/1 1061/29/1 1035/28/1 774/1/1
f 1060/1/4 1034/6/4 1036/29/4 1062/28/4
f 1061/6/1 1063/29/1 1037/28/1 1035/1/1
f 1062/1/4 1036/6/4 1038/29/4 1064/28/4
f 1063/6/1 1065/29/1 1039/28/1 1037/1/1
f 1064/1/4 1038/6/4 1040/29/4 1066/28/4
f 1065/6/1 1067/29/1 1041/28/1 1039/1/1
f 1066/1/4 1040/6/4 1042/29/4 1068/28/4
f 1067/6/1 1069/29/1 1043/28/1 1041/1/1
f 1068/1/4 1042/6/4 1044/29/4 1070/28/4
f 1069/6/1 1071/29/1 1045/28/1 1043/1/1
f 1070/1/4 1044/6/4 1046/29/4 1072/28/4
f 1071/6/1 1073/29/1 1047/28/1 1045/1/1
f 1072/1/4 1046/6/4 1048/29/4 1074/28/4
f 1073/6/1 1075/29/1 1049/28/1 1047/1/1
f 1074/1/4 1048/6/4 1050/29/4 1076/28/4
f 1075/6/1 1077/29/1 1051/28/1 1049/1/1
f 1076/1/4 1050/6/4 1052/29/4 1078/28/4
f 1077/6/1 1079/29/1 1053/28/1 1051/1/1
f 1078/1/4 1052/6/4 1054/29/4 1080/28/4
f 1079/6/1 1081/29/1 1055/28/1 1053/1/1
f 1080/1/4 1054/6/4 1056/29/4 1082/28/4
f 1081/6/1 1083/29/1 1057/28/1 1055/1/1
f 1082/1/4 1056/6/4 1058/29/4 1084/28/4
f 1083/1/5 1084/6/5 1058/29/5 1057/28/5
f 777/1/2 775/28/2 1059/29/2 1085/6/2
f 1085/1/4 1059/6/4 1060/29/4 1086/28/4
f 778/6/1 1087/29/1 1061/28/1 776/1/1
f 1086/1/4 1060/6/4 1062/29/4 1088/28/4
f 1087/6/1 1089/29/1 1063/28/1 1061/1/1
f 1088/1/4 1062/6/4 1064/29/4 1090/28/4
f 1089/6/1 1091/29/1 1065/28/1 1063/1/1
f 1090/1/4 1064/6/4 1066/29/4 1092/28/4
f 1091/6/1 1093/29/1 1067/28/1 1065/1/1
f 1092/1/4 1066/6/4 1068/29/4 1094/28/4
f 1093/6/1 1095/29/1 1069/28/1 1067/1/1
f 1094/1/4 1068/6/4 1070/29/4 1096/28/4
f 1095/6/1 1097/29/1 1071/28/1 1069/1/1
f 1096/1/4 1070/6/4 1072/29/4 1098/28/4
f 1097/6/1 1099/29/1 1073/28/1 1071/1/1
f 1098/1/4 1072/6/4 1074/29/4 1100/28/4
f 1099/6/1 1101/29/1 1075/28/1 1073/1/1
f 1100/1/4 1074/6/4 1076/29/4 1102/28/4
f 1101/6/1 1103/29/1 1077/28/1 1075/1/1
f 1102/1/4 1076/6/4 1078/29/4 1104/28/4
f 1103/6/1 1105/29/1 1079/28/1 1077/1/1
f 1104/1/4 1078/6/4 1080/29/4 1106/28/4
f 1105/6/1 1107/29/1 1081/28/1 1079/1/1
f 1106/1/4 1080/6/4 1082/29/4 1108/28/4
f 1107/6/1 1109/29/1 1083/28/1 1081/1/1
f 1108/1/4 1082/6/4 1084/29/4 1110/28/4
f 1109/1/5 1110/6/5 1084/29/5 1083/28/5
f 779/1/2 777/28/2 1085/29/2 1111/6/2
f 1111/1/4 1085/6/4 1086/29/4 1112/28/4
f 780/6/1 1113/29/1 1087/28/1 778/1/1
f 1112/1/4 1086/6/4 1088/29/4 1114/28/4
f 1113/6/1 1115/29/1 1089/28/1 1087/1/1
f 1114/1/4 1088/6/4 1090/29/4 1116/28/4
f 1115/6/1 1117/29/1 1091/28/1 1089/1/1
f 1116/1/4 1090/6/4 1092/29/4 1118/28/4
f 1117/6/1 1119/29/1 1093/28/1 1091/1/1
f 1118/1/4 1092/6/4 1094/29/4 1120/28/4
f 1119/6/1 1121/29/1 1095/28/1 1093/1/1
f 1120/1/4 1094/6/4 1096/29/4 1122/28/4
f 1121/6/1 1123/29/1 1097/28/1 1095/1/1
f 1122/1/4 1096/6/4 1098/29/4 1124/28/4
f 1123/6/1 1125/29/1 1099/28/1 1097/1/1
f 1124/1/4 1098/6/4 1100/29/4 1126/28/4
f 1125/6/1 1127/29/1 1101/28/1 1099/1/1
f 1126/1/4 1100/6/4 1102/29/4 1128/28/4
f 1127/6/1 1129/29/1 1103/28/1 1101/1/1
f 1128/1/4 1102/6/4 1104/29/4 1130/28/4
f 1129/6/1 1131/29/1 1105/28/1 1103/1/1
f 1130/1/4 1104/6/4 1106/29/4 1132/28/4
f 1131/6/1 1133/29/1 1107/28/1 1105/1/1
f 1132/1/4 1106/6/4 1108/29/4 1134/28/4
f 1133/6/1 1135/29/1 1109/28/1 1107/1/1
f 1134/1/4 1108/6/4 1110/29/4 1136/28/4
f 1135/1/5 1136/6/5 1110/29/5 1109/28/5
f 781/1/2 779/28/2 1111/29/2 1137/6/2
f 1137/1/4 1111/6/4 1112/29/4 1138/28/4
f 782/6/1 1139/29/1 1113/28/1 780/1/1
f 1138/1/4 1112/6/4 1114/29/4 1140/28/4
f 1139/6/1 1141/29/1 1115/28/1 1113/1/1
f 1140/1/4 1114/6/4 1116/29/4 1142/28/4
f 1141/6/1 1143/29/1 1117/28/1 1115/1/1
f 1142/1/4 1116/6/4 1118/29/4 1144/28/4
f 1143/6/1 1145/29/1 1119/28/1 1117/1/1
f 1144/1/4 1118/6/4 1120/29/4 1146/28/4
f 1145/6/1 1147/29/1 1121/28/1 1119/1/1
f 1146/1/4 1120/6/4 1122/29/4 1148/28/4
f 1147/6/1 1149/29/1 1123/28/1 1121/1/1
f 1148/1/4 1122/6/4 1124/29/4 1150/28/4
f 1149/6/1 1151/29/1 1125/28/1 1123/1/1
f 1150/1/4 1124/6/4 1126/29/4 1152/28/4
f 1151/6/1 1153/29/1 1127/28/1 1125/1/1
f 1152/1/4 1126/6/4 1128/29/4 1154/28/4
f 1153/6/1 1155/29/1 1129/28/1 1127/1/1
f 1154/1/4 1128/6/4 1130/29/4 1156/28/4
f 1155/6/1 1157/29/1 1131/28/1 1129/1/1
f 1156/1/4 1130/6/4 1132/29/4 1158/28/4
f 1157/6/1 1159/29/1 1133/28/1 1131/1/1
f 1158/1/4 1132/6/4 1134/29/4 1160/28/4
f 1159/6/1 1161/29/1 1135/28/1 1133/1/1
f 1160/1/4 1134/6/4 1136/29/4 1162/28/4
f 1161/1/5 1162/6/5 1136/29/5 1135/28/5
f 783/1/2 781/28/2 1137/29/2 1163/6/2
f 1163/1/4 1137/6/4 1138/29/4 1164/28/4
f 784/6/1 786/29/1 1139/28/1 782/1/1
f 1164/1/4 1138/6/4 1140/29/4 1165/28/4
f 786/6/1 789/29/1 1141/28/1 1139/1/1
f 1165/1/4 1140/6/4 1142/29/4 1166/28/4
f 789/6/1 794/29/1 1143/28/1 1141/1/1
f 1166/1/4 1142/6/4 1144/29/4 1167/28/4
f 794/6/1 798/29/1 1145/28/1 1143/1/1
f 1167/1/4 1144/6/4 1146/29/4 1168/28/4
f 798/6/1 802/29/1 1147/28/1 1145/1/1
f 1168/1/4 1146/6/4 1148/29/4 1169/28/4
f 802/6/1 806/29/1 1149/28/1 1147/1/1
f 1169/1/4 1148/6/4 1150/29/4 1170/28/4
f 806/6/1 810/29/1 1151/28/1 1149/1/1
f 1170/1/4 1150/6/4 1152/29/4 1171/28/4
f 810/6/1 814/29/1 1153/28/1 1151/1/1
f 1171/1/4 1152/6/4 1154/29/4 1172/28/4
f 814/6/1 1173/29/1 1155/28/1 1153/1/1
f 1172/1/4 1154/6/4 1156/29/4 1174/28/4
f 1173/6/1 1175/29/1 1157/28/1 1155/1/1
f 1174/1/4 1156/6/4 1158/29/4 1176/28/4
f 1175/6/1 1177/29/1 1159/28/1 1157/1/1
f 1176/1/4 1158/6/4 1160/29/4 1178/28/4
f 1177/6/1 1179/29/1 1161/28/1 1159/1/1
f 1178/1/4 1160/6/4 1162/29/4 1180/28/4
f 1179/1/5 1180/6/5 1162/29/5 1161/28/5
f 1181/6/1 785/29/1 784/28/1 783/1/1
f 1181/1/2 783/28/2 1163/29/2 1182/6/2
f 1182/1/4 1163/6/4 1164/29/4 1183/28/4
f 815/6/1 824/29/1 1173/28/1 814/1/1
f 1191/1/4 1172/6/4 1174/29/4 1192/28/4
f 824/6/1 1193/29/1 1175/28/1 1173/1/1
f 1192/1/4 1174/6/4 1176/29/4 1194/28/4
f 1193/6/1 1195/29/1 1177/28/1 1175/1/1
f 1194/1/4 1176/6/4 1178/29/4 1196/28/4
f 1195/6/1 1197/29/1 1179/28/1 1177/1/1
f 1196/1/4 1178/6/4 1180/29/4 1198/28/4
f 1197/1/5 1198/6/5 1180/29/5 1179/28/5
f 1199/6/1 816/29/1 785/28/1 1181/1/1
f 1199/1/2 1181/28/2 1182/29/2 1200/6/2
f 1200/1/4 1182/6/4 1183/29/4 1201/28/4
f 825/6/1 1216/29/1 1193/28/1 824/1/1
f 1215/1/4 1192/6/4 1194/29/4 1217/28/4
f 1216/6/1 1218/29/1 1195/28/1 1193/1/1
f 1217/1/4 1194/6/4 1196/29/4 1219/28/4
f 1218/6/1 1220/29/1 1197/28/1 1195/1/1
f 1219/1/4 1196/6/4 1198/29/4 1221/28/4
f 1220/1/5 1221/6/5 1198/29/5 1197/28/5
f 1222/6/1 826/29/1 816/28/1 1199/1/1
f 1222/1/2 1199/28/2 1200/29/2 1223/6/2
f 1223/1/4 1200/6/4 1201/29/4 1224/28/4
f 831/6/1 840/29/1 1216/28/1 825/1/1
f 831/1/2 825/28/2 1215/29/2 1226/6/2
f 1226/1/4 1215/6/4 1217/29/4 1227/28/4
f 831/1/6 1226/6/6 1227/29/6 840/28/6
f 840/6/1 1228/29/1 1218/28/1 1216/1/1
f 1227/1/4 1217/6/4 1219/29/4 1229/28/4
f 1228/6/1 1230/29/1 1220/28/1 1218/1/1
f 1229/1/4 1219/6/4 1221/29/4 1231/28/4
f 1230/1/5 1231/6/5 1221/29/5 1220/28/5
f 1232/6/1 832/29/1 826/28/1 1222/1/1
f 1232/1/2 1222/28/2 1223/29/2 1233/6/2
f 1233/1/4 1223/6/4 1224/29/4 1234/28/4
f 841/6/1 1236/29/1 1228/28/1 840/1/1
f 841/1/2 840/28/2 1227/29/2 1237/6/2
f 1237/1/4 1227/6/4 1229/29/4 1238/28/4
f 1236/6/1 1239/29/1 1230/28/1 1228/1/1
f 1238/1/4 1229/6/4 1231/29/4 1240/28/4
f 1239/1/5 1240/6/5 1231/29/5 1230/28/5
f 1241/6/1 842/29/1 832/28/1 1232/1/1
f 1241/1/2 1232/28/2 1233/29/2 1242/6/2
f 1242/1/4 1233/6/4 1234/29/4 1243/28/4
f 847/6/1 1275/29/1 1236/28/1 841/1/1
f 1274/1/4 1237/6/4 1238/29/4 1276/28/4
f 1275/6/1 1277/29/1 1239/28/1 1236/1/1
f 1276/1/4 1238/6/4 1240/29/4 1278/28/4
f 1277/1/5 1278/6/5 1240/29/5 1239/28/5
f 1279/6/1 848/29/1 842/28/1 1241/1/1
f 1279/1/2 1241/28/2 1242/29/2 1280/6/2
f 1280/1/4 1242/6/4 1243/29/4 1281/28/4
f 853/6/1 1283/29/1 1275/28/1 847/1/1
f 853/1/2 847/28/2 1274/29/2 1284/6/2
f 1284/1/4 1274/6/4 1276/29/4 1285/28/4
f 1283/6/1 1286/29/1 1277/28/1 1275/1/1
f 1285/1/4 1276/6/4 1278/29/4 1287/28/4
f 1286/1/5 1287/6/5 1278/29/5 1277/28/5
f 1288/6/1 854/29/1 848/28/1 1279/1/1
f 1288/1/2 1279/28/2 1280/29/2 1289/6/2
f 1289/1/4 1280/6/4 1281/29/4 1290/28/4
f 859/6/1 1315/29/1 1283/28/1 853/1/1
f 1314/1/4 1284/6/4 1285/29/4 1316/28/4
f 1315/6/1 1317/29/1 1286/28/1 1283/1/1
f 1316/1/4 1285/6/4 1287/29/4 1318/28/4
f 1317/1/5 1318/6/5 1287/29/5 1286/28/5
f 1319/6/1 860/29/1 854/28/1 1288/1/1
f 1319/1/2 1288/28/2 1289/29/2 1320/6/2
f 1320/1/4 1289/6/4 1290/29/4 1321/28/4
f 869/6/1 1337/29/1 1315/28/1 859/1/1
f 869/1/2 859/28/2 1314/29/2 1338/6/2
f 1338/1/4 1314/6/4 1316/29/4 1339/28/4
f 1337/6/1 1340/29/1 1317/28/1 1315/1/1
f 1339/1/4 1316/6/4 1318/29/4 1341/28/4
f 1340/1/5 1341/6/5 1318/29/5 1317/28/5
f 1342/6/1 870/29/1 860/28/1 1319/1/1
f 1342/1/2 1319/28/2 1320/29/2 1343/6/2
f 1343/1/4 1320/6/4 1321/29/4 1344/28/4
f 875/6/1 1346/29/1 869/28/1 868/1/1
f 875/1/2 868/28/2 1336/29/2 1347/6/2
f 868/6/3 869/29/3 1338/28/3 1336/1/3
f 1347/1/4 1336/6/4 1338/29/4 1348/28/4
f 1346/6/1 1349/29/1 1337/28/1 869/1/1
f 1348/1/4 1338/6/4 1339/29/4 1350/28/4
f 1349/6/1 1351/29/1 1340/28/1 1337/1/1
f 1350/1/4 1339/6/4 1341/29/4 1352/28/4
f 1351/1/5 1352/6/5 1341/29/5 1340/28/5
f 1353/6/1 876/29/1 870/28/1 1342/1/1
f 1353/1/2 1342/28/2 1343/29/2 1354/6/2
f 1354/1/4 1343/6/4 1344/29/4 1355/28/4
f 884/6/1 1369/29/1 1346/28/1 875/1/1
f 1370/1/4 1347/6/4 1348/29/4 1371/28/4
f 1369/6/1 1372/29/1 1349/28/1 1346/1/1
f 1371/1/4 1348/6/4 1350/29/4 1373/28/4
f 1372/6/1 1374/29/1 1351/28/1 1349/1/1
f 1373/1/4 1350/6/4 1352/29/4 1375/28/4
f 1374/1/5 1375/6/5 1352/29/5 1351/28/5
f 913/6/1 886/29/1 876/28/1 1353/1/1
f 913/1/2 1353/28/2 1354/29/2 1376/6/2
f 1376/1/4 1354/6/4 1355/29/4 1377/28/4
f 911/6/1 1393/29/1 884/28/1 885/1/1
f 1392/1/4 1391/6/4 1370/29/4 1394/28/4
f 1393/6/1 1395/29/1 1369/28/1 884/1/1
f 1394/1/4 1370/6/4 1371/29/4 1396/28/4
f 1395/6/1 1397/29/1 1372/28/1 1369/1/1
f 1396/1/4 1371/6/4 1373/29/4 1398/28/4
f 1397/6/1 1399/29/1 1374/28/1 1372/1/1
f 1398/1/4 1373/6/4 1375/29/4 1400/28/4
f 1399/1/5 1400/6/5 1375/29/5 1374/28/5
f 912/1/2 913/28/2 1376/29/2 1401/6/2
f 1401/1/4 1376/6/4 1377/29/4 1402/28/4
f 914/6/1 1403/29/1 887/28/1 886/1/1
f 1402/1/4 1377/6/4 1378/29/4 1404/28/4
f 1403/6/1 1405/29/1 891/28/1 887/1/1
f 1404/1/4 1378/6/4 1380/29/4 1406/28/4
f 1405/6/1 1407/29/1 895/28/1 891/1/1
f 1406/1/4 1380/6/4 1382/29/4 1408/28/4
f 1407/6/1 1409/29/1 899/28/1 895/1/1
f 1408/1/4 1382/6/4 1384/29/4 1410/28/4
f 1409/6/1 1411/29/1 903/28/1 899/1/1
f 1410/1/4 1384/6/4 1386/29/4 1412/28/4
f 1411/6/1 1413/29/1 907/28/1 903/1/1
f 1412/1/4 1386/6/4 1388/29/4 1414/28/4
f 1413/6/1 1415/29/1 909/28/1 907/1/1
f 1414/1/4 1388/6/4 1390/29/4 1416/28/4
f 1415/6/1 1417/29/1 911/28/1 909/1/1
f 1416/1/4 1390/6/4 1392/29/4 1418/28/4
f 1417/6/1 1419/29/1 1393/28/1 911/1/1
f 1418/1/4 1392/6/4 1394/29/4 1420/28/4
f 1419/6/1 1421/29/1 1395/28/1 1393/1/1
f 1420/1/4 1394/6/4 1396/29/4 1422/28/4
f 1421/6/1 1423/29/1 1397/28/1 1395/1/1
f 1422/1/4 1396/6/4 1398/29/4 1424/28/4
f 1423/6/1 1425/29/1 1399/28/1 1397/1/1
f 1424/1/4 1398/6/4 1400/29/4 1426/28/4
f 1425/1/5 1426/6/5 1400/29/5 1399/28/5
f 915/1/2 912/28/2 1401/29/2 1427/6/2
f 1427/1/4 1401/6/4 1402/29/4 1428/28/4
f 916/6/1 1429/29/1 1403/28/1 914/1/1
f 1428/1/4 1402/6/4 1404/29/4 1430/28/4
f 1429/6/1 1431/29/1 1405/28/1 1403/1/1
f 1430/1/4 1404/6/4 1406/29/4 1432/28/4
f 1431/6/1 1433/29/1 1407/28/1 1405/1/1
f 1432/1/4 1406/6/4 1408/29/4 1434/28/4
f 1433/6/1 1435/29/1 1409/28/1 1407/1/1
f 1434/1/4 1408/6/4 1410/29/4 1436/28/4
f 1435/6/1 1437/29/1 1411/28/1 1409/1/1
f 1436/1/4 1410/6/4 1412/29/4 1438/28/4
f 1437/6/1 1439/29/1 1413/28/1 1411/1/1
f 1438/1/4 1412/6/4 1414/29/4 1440/28/4
f 1439/6/1 1441/29/1 1415/28/1 1413/1/1
f 1440/1/4 1414/6/4 1416/29/4 1442/28/4
f 1441/6/1 1443/29/1 1417/28/1 1415/1/1
f 1442/1/4 1416/6/4 1418/29/4 1444/28/4
f 1443/6/1 1445/29/1 1419/28/1 1417/1/1
f 1444/1/4 1418/6/4 1420/29/4 1446/28/4
f 1445/6/1 1447/29/1 1421/28/1 1419/1/1
f 1446/1/4 1420/6/4 1422/29/4 1448/28/4
f 1447/6/1 1449/29/1 1423/28/1 1421/1/1
f 1448/1/4 1422/6/4 1424/29/4 1450/28/4
f 1449/6/1 1451/29/1 1425/28/1 1423/1/1
f 1450/1/4 1424/6/4 1426/29/4 1452/28/4
f 1451/1/5 1452/6/5 1426/29/5 1425/28/5
f 917/1/2 915/28/2 1427/29/2 1453/6/2
f 1453/1/4 1427/6/4 1428/29/4 1454/28/4
f 918/6/1 1455/29/1 1429/28/1 916/1/1
f 1454/1/4 1428/6/4 1430/29/4 1456/28/4
f 1455/6/1 1457/29/1 1431/28/1 1429/1/1
f 1456/1/4 1430/6/4 1432/29/4 1458/28/4
f 1457/6/1 1459/29/1 1433/28/1 1431/1/1
f 1458/1/4 1432/6/4 1434/29/4 1460/28/4
f 1459/6/1 1461/29/1 1435/28/1 1433/1/1
f 1460/1/4 1434/6/4 1436/29/4 1462/28/4
f 1461/6/1 1463/29/1 1437/28/1 1435/1/1
f 1462/1/4 1436/6/4 1438/29/4 1464/28/4
f 1463/6/1 1465/29/1 1439/28/1 1437/1/1
f 1464/1/4 1438/6/4 1440/29/4 1466/28/4
f 1465/6/1 1467/29/1 1441/28/1 1439/1/1
f 1466/1/4 1440/6/4 1442/29/4 1468/28/4
f 1467/6/1 1469/29/1 1443/28/1 1441/1/1
f 1468/1/4 1442/6/4 1444/29/4 1470/28/4
f 1469/6/1 1471/29/1 1445/28/1 1443/1/1
f 1470/1/4 1444/6/4 1446/29/4 1472/28/4
f 1471/6/1 1473/29/1 1447/28/1 1445/1/1
f 1472/1/4 1446/6/4 1448/29/4 1474/28/4
f 1473/6/1 1475/29/1 1449/28/1 1447/1/1
f 1474/1/4 1448/6/4 1450/29/4 1476/28/4
f 1475/6/1 1477/29/1 1451/28/1 1449/1/1
f 1476/1/4 1450/6/4 1452/29/4 1478/28/4
f 1477/1/5 1478/6/5 1452/29/5 1451/28/5
f 919/1/2 917/28/2 1453/29/2 1479/6/2
f 1479/1/4 1453/6/4 1454/29/4 1480/28/4
f 920/6/1 1481/29/1 1455/28/1 918/1/1
f 1480/1/4 1454/6/4 1456/29/4 1482/28/4
f 1481/6/1 1483/29/1 1457/28/1 1455/1/1
f 1482/1/4 1456/6/4 1458/29/4 1484/28/4
f 1483/6/1 1485/29/1 1459/28/1 1457/1/1
f 1484/1/4 1458/6/4 1460/29/4 1486/28/4
f 1485/6/1 1487/29/1 1461/28/1 1459/1/1
f 1486/1/4 1460/6/4 1462/29/4 1488/28/4
f 1487/6/1 1489/29/1 1463/28/1 1461/1/1
f 1488/1/4 1462/6/4 1464/29/4 1490/28/4
f 1489/6/1 1491/29/1 1465/28/1 1463/1/1
f 1490/1/4 1464/6/4 1466/29/4 1492/28/4
f 1491/6/1 1493/29/1 1467/28/1 1465/1/1
f 1492/1/4 1466/6/4 1468/29/4 1494/28/4
f 1493/6/1 1495/29/1 1469/28/1 1467/1/1
f 1494/1/4 1468/6/4 1470/29/4 1496/28/4
f 1495/6/1 1497/29/1 1471/28/1 1469/1/1
f 1496/1/4 1470/6/4 1472/29/4 1498/28/4
f 1497/6/1 1499/29/1 1473/28/1 1471/1/1
f 1498/1/4 1472/6/4 1474/29/4 1500/28/4
f 1499/6/1 1501/29/1 1475/28/1 1473/1/1
f 1500/1/4 1474/6/4 1476/29/4 1502/28/4
f 1501/6/1 1503/29/1 1477/28/1 1475/1/1
f 1502/1/4 1476/6/4 1478/29/4 1504/28/4
f 1503/1/5 1504/6/5 1478/29/5 1477/28/5
f 921/1/2 919/28/2 1479/29/2 1505/6/2
f 1505/1/4 1479/6/4 1480/29/4 1506/28/4
f 922/6/1 1507/29/1 1481/28/1 920/1/1
f 1506/1/4 1480/6/4 1482/29/4 1508/28/4
f 1507/6/1 1509/29/1 1483/28/1 1481/1/1
f 1508/1/4 1482/6/4 1484/29/4 1510/28/4
f 1509/6/1 1511/29/1 1485/28/1 1483/1/1
f 1510/1/4 1484/6/4 1486/29/4 1512/28/4
f 1511/6/1 1513/29/1 1487/28/1 1485/1/1
f 1512/1/4 1486/6/4 1488/29/4 1514/28/4
f 1513/6/1 1515/29/1 1489/28/1 1487/1/1
f 1514/1/4 1488/6/4 1490/29/4 1516/28/4
f 1515/6/1 1517/29/1 1491/28/1 1489/1/1
f 1516/1/4 1490/6/4 1492/29/4 1518/28/4
f 1517/6/1 1519/29/1 1493/28/1 1491/1/1
f 1518/1/4 1492/6/4 1494/29/4 1520/28/4
f 1519/6/1 1521/29/1 1495/28/1 1493/1/1
f 1520/1/4 1494/6/4 1496/29/4 1522/28/4
f 1521/6/1 1523/29/1 1497/28/1 1495/1/1
f 1522/1/4 1496/6/4 1498/29/4 1524/28/4
f 1523/6/1 1525/29/1 1499/28/1 1497/1/1
f 1524/1/4 1498/6/4 1500/29/4 1526/28/4
f 1525/6/1 1527/29/1 1501/28/1 1499/1/1
f 1526/1/4 1500/6/4 1502/29/4 1528/28/4
f 1527/6/1 1529/29/1 1503/28/1 1501/1/1
f 1528/1/4 1502/6/4 1504/29/4 1530/28/4
f 1529/1/5 1530/6/5 1504/29/5 1503/28/5
f 923/1/2 921/28/2 1505/29/2 1531/6/2
f 1531/1/4 1505/6/4 1506/29/4 1532/28/4
f 924/6/1 1533/29/1 1507/28/1 922/1/1
f 1532/1/4 1506/6/4 1508/29/4 1534/28/4
f 1533/6/1 1535/29/1 1509/28/1 1507/1/1
f 1534/1/4 1508/6/4 1510/29/4 1536/28/4
f 1535/6/1 1537/29/1 1511/28/1 1509/1/1
f 1536/1/4 1510/6/4 1512/29/4 1538/28/4
f 1537/6/1 1539/29/1 1513/28/1 1511/1/1
f 1538/1/4 1512/6/4 1514/29/4 1540/28/4
f 1539/6/1 1541/29/1 1515/28/1 1513/1/1
f 1540/1/4 1514/6/4 1516/29/4 1542/28/4
f 1541/6/1 1543/29/1 1517/28/1 1515/1/1
f 1542/1/4 1516/6/4 1518/29/4 1544/28/4
f 1543/6/1 1545/29/1 1519/28/1 1517/1/1
f 1544/1/4 1518/6/4 1520/29/4 1546/28/4
f 1545/6/1 1547/29/1 1521/28/1 1519/1/1
f 1546/1/4 1520/6/4 1522/29/4 1548/28/4
f 1547/6/1 1549/29/1 1523/28/1 1521/1/1
f 1548/1/4 1522/6/4 1524/29/4 1550/28/4
f 1549/6/1 1551/29/1 1525/28/1 1523/1/1
f 1550/1/4 1524/6/4 1526/29/4 1552/28/4
f 1551/6/1 1553/29/1 1527/28/1 1525/1/1
f 1552/1/4 1526/6/4 1528/29/4 1554/28/4
f 1553/6/1 1555/29/1 1529/28/1 1527/1/1
f 1554/1/4 1528/6/4 1530/29/4 1556/28/4
f 1555/1/5 1556/6/5 1530/29/5 1529/28/5
f 925/1/2 923/28/2 1531/29/2 1557/6/2
f 1557/1/4 1531/6/4 1532/29/4 1558/28/4
f 926/6/1 1559/29/1 1533/28/1 924/1/1
f 1558/1/4 1532/6/4 1534/29/4 1560/28/4
f 1559/6/1 1561/29/1 1535/28/1 1533/1/1
f 1560/1/4 1534/6/4 1536/29/4 1562/28/4
f 1561/6/1 1563/29/1 1537/28/1 1535/1/1
f 1562/1/4 1536/6/4 1538/29/4 1564/28/4
f 1563/6/1 1565/29/1 1539/28/1 1537/1/1
f 1564/1/4 1538/6/4 1540/29/4 1566/28/4
f 1565/6/1 1567/29/1 1541/28/1 1539/1/1
f 1566/1/4 1540/6/4 1542/29/4 1568/28/4
f 1567/6/1 1569/29/1 1543/28/1 1541/1/1
f 1568/1/4 1542/6/4 1544/29/4 1570/28/4
f 1569/6/1 1571/29/1 1545/28/1 1543/1/1
f 1570/1/4 1544/6/4 1546/29/4 1572/28/4
f 1571/6/1 1573/29/1 1547/28/1 1545/1/1
f 1572/1/4 1546/6/4 1548/29/4 1574/28/4
f 1573/6/1 1575/29/1 1549/28/1 1547/1/1
f 1574/1/4 1548/6/4 1550/29/4 1576/28/4
f 1575/6/1 1577/29/1 1551/28/1 1549/1/1
f 1576/1/4 1550/6/4 1552/29/4 1578/28/4
f 1577/6/1 1579/29/1 1553/28/1 1551/1/1
f 1578/1/4 1552/6/4 1554/29/4 1580/28/4
f 1579/6/1 1581/29/1 1555/28/1 1553/1/1
f 1580/1/4 1554/6/4 1556/29/4 1582/28/4
f 1581/1/5 1582/6/5 1556/29/5 1555/28/5
f 927/1/2 925/28/2 1557/29/2 1583/6/2
f 1583/1/4 1557/6/4 1558/29/4 1584/28/4
f 927/1/6 1583/6/6 1584/29/6 928/28/6
f 928/6/1 1585/29/1 1559/28/1 926/1/1
f 1584/1/4 1558/6/4 1560/29/4 1586/28/4
f 928/1/6 1584/6/6 1586/29/6 1585/28/6
f 1585/6/1 1587/29/1 1561/28/1 1559/1/1
f 1586/1/4 1560/6/4 1562/29/4 1588/28/4
f 1585/1/6 1586/6/6 1588/29/6 1587/28/6
f 1587/6/1 1589/29/1 1563/28/1 1561/1/1
f 1588/1/4 1562/6/4 1564/29/4 1590/28/4
f 1587/1/6 1588/6/6 1590/29/6 1589/28/6
f 1589/6/1 1591/29/1 1565/28/1 1563/1/1
f 1590/1/4 1564/6/4 1566/29/4 1592/28/4
f 1589/1/6 1590/6/6 1592/29/6 1591/28/6
f 1591/6/1 1593/29/1 1567/28/1 1565/1/1
f 1592/1/4 1566/6/4 1568/29/4 1594/28/4
f 1591/1/6 1592/6/6 1594/29/6 1593/28/6
f 1593/6/1 1595/29/1 1569/28/1 1567/1/1
f 1594/1/4 1568/6/4 1570/29/4 1596/28/4
f 1593/1/6 1594/6/6 1596/29/6 1595/28/6
f 1595/6/1 1597/29/1 1571/28/1 1569/1/1
f 1596/1/4 1570/6/4 1572/29/4 1598/28/4
f 1595/1/6 1596/6/6 1598/29/6 1597/28/6
f 1597/6/1 1599/29/1 1573/28/1 1571/1/1
f 1598/1/4 1572/6/4 1574/29/4 1600/28/4
f 1597/1/6 1598/6/6 1600/29/6 1599/28/6
f 1599/6/1 1601/29/1 1575/28/1 1573/1/1
f 1600/1/4 1574/6/4 1576/29/4 1602/28/4
f 1599/1/6 1600/6/6 1602/29/6 1601/28/6
f 1601/6/1 1603/29/1 1577/28/1 1575/1/1
f 1602/1/4 1576/6/4 1578/29/4 1604/28/4
f 1601/1/6 1602/6/6 1604/29/6 1603/28/6
f 1603/6/1 1605/29/1 1579/28/1 1577/1/1
f 1604/1/4 1578/6/4 1580/29/4 1606/28/4
f 1603/1/6 1604/6/6 1606/29/6 1605/28/6
f 1605/6/1 1607/29/1 1581/28/1 1579/1/1
f 1606/1/4 1580/6/4 1582/29/4 1608/28/4
f 1607/1/5 1608/6/5 1582/29/5 1581/28/5
f 1605/1/6 1606/6/6 1608/29/6 1607/28/6

g Dark_Oak_Wood_Planks
usemtl dark_oak_planks
f 482/6/1 539/29/1 540/28/1 480/1/1
f 482/1/2 480/28/2 538/29/2 541/6/2
f 480/6/3 540/29/3 542/28/3 538/1/3
f 539/1/5 543/6/5 542/29/5 540/28/5
f 484/6/1 544/29/1 539/28/1 482/1/1
f 484/1/2 482/28/2 541/29/2 545/6/2
f 544/1/5 546/6/5 543/29/5 539/28/5
f 486/6/1 547/29/1 544/28/1 484/1/1
f 486/1/2 484/28/2 545/29/2 548/6/2
f 547/1/5 549/6/5 546/29/5 544/28/5
f 488/6/1 550/29/1 547/28/1 486/1/1
f 488/1/2 486/28/2 548/29/2 551/6/2
f 550/1/5 552/6/5 549/29/5 547/28/5
f 490/6/1 553/29/1 550/28/1 488/1/1
f 490/1/2 488/28/2 551/29/2 554/6/2
f 553/1/5 555/6/5 552/29/5 550/28/5
f 490/1/6 554/6/6 555/29/6 553/28/6
f 536/6/1 601/29/1 602/28/1 534/1/1
f 536/1/2 534/28/2 600/29/2 603/6/2
f 534/6/3 602/29/3 604/28/3 600/1/3
f 601/1/5 605/6/5 604/29/5 602/28/5
f 538/6/1 542/29/1 601/28/1 536/1/1
f 538/1/2 536/28/2 603/29/2 606/6/2
f 542/1/5 607/6/5 605/29/5 601/28/5
f 541/1/2 538/28/2 606/29/2 608/6/2
f 543/1/5 609/6/5 607/29/5 542/28/5
f 545/1/2 541/28/2 608/29/2 610/6/2
f 546/1/5 611/6/5 609/29/5 543/28/5
f 548/1/2 545/28/2 610/29/2 612/6/2
f 549/1/5 613/6/5 611/29/5 546/28/5
f 551/1/2 548/28/2 612/29/2 614/6/2
f 552/1/5 615/6/5 613/29/5 549/28/5
f 554/1/2 551/28/2 614/29/2 616/6/2
f 555/1/5 617/6/5 615/29/5 552/28/5
f 558/6/1 618/29/1 555/28/1 554/1/1
f 558/1/2 554/28/2 616/29/2 619/6/2
f 618/1/5 620/6/5 617/29/5 555/28/5
f 560/6/1 621/29/1 618/28/1 558/1/1
f 560/1/2 558/28/2 619/29/2 622/6/2
f 621/1/5 623/6/5 620/29/5 618/28/5
f 560/1/6 622/6/6 623/29/6 621/28/6
f 600/6/1 604/29/1 663/28/1 598/1/1
f 600/1/2 598/28/2 662/29/2 664/6/2
f 598/6/3 663/29/3 665/28/3 662/1/3
f 604/1/5 666/6/5 665/29/5 663/28/5
f 603/1/2 600/28/2 664/29/2 667/6/2
f 605/1/5 668/6/5 666/29/5 604/28/5
f 606/1/2 603/28/2 667/29/2 669/6/2
f 607/1/5 670/6/5 668/29/5 605/28/5
f 608/1/2 606/28/2 669/29/2 671/6/2
f 609/1/5 672/6/5 670/29/5 607/28/5
f 610/1/2 608/28/2 671/29/2 673/6/2
f 611/1/5 674/6/5 672/29/5 609/28/5
f 612/1/2 610/28/2 673/29/2 675/6/2
f 613/1/5 676/6/5 674/29/5 611/28/5
f 614/1/2 612/28/2 675/29/2 677/6/2
f 615/1/5 678/6/5 676/29/5 613/28/5
f 616/1/2 614/28/2 677/29/2 679/6/2
f 617/1/5 680/6/5 678/29/5 615/28/5
f 619/1/2 616/28/2 679/29/2 681/6/2
f 620/1/5 682/6/5 680/29/5 617/28/5
f 622/1/2 619/28/2 681/29/2 683/6/2
f 623/1/5 684/6/5 682/29/5 620/28/5
f 626/6/1 685/29/1 623/28/1 622/1/1
f 626/1/2 622/28/2 683/29/2 686/6/2
f 685/1/5 687/6/5 684/29/5 623/28/5
f 626/1/6 686/6/6 687/29/6 685/28/6
f 664/1/2 662/28/2 724/29/2 725/6/2
f 662/6/3 665/29/3 726/28/3 724/1/3
f 666/1/5 727/6/5 726/29/5 665/28/5
f 667/1/2 664/28/2 725/29/2 728/6/2
f 668/1/5 729/6/5 727/29/5 666/28/5
f 669/1/2 667/28/2 728/29/2 730/6/2
f 670/1/5 731/6/5 729/29/5 668/28/5
f 671/1/2 669/28/2 730/29/2 732/6/2
f 672/1/5 733/6/5 731/29/5 670/28/5
f 673/1/2 671/28/2 732/29/2 734/6/2
f 674/1/5 735/6/5 733/29/5 672/28/5
f 675/1/2 673/28/2 734/29/2 736/6/2
f 676/1/5 737/6/5 735/29/5 674/28/5
f 677/1/2 675/28/2 736/29/2 738/6/2
f 678/1/5 739/6/5 737/29/5 676/28/5
f 679/1/2 677/28/2 738/29/2 740/6/2
f 680/1/5 741/6/5 739/29/5 678/28/5
f 681/1/2 679/28/2 740/29/2 742/6/2
f 682/1/5 743/6/5 741/29/5 680/28/5
f 683/1/2 681/28/2 742/29/2 744/6/2
f 684/1/5 745/6/5 743/29/5 682/28/5
f 686/1/2 683/28/2 744/29/2 746/6/2
f 687/1/5 747/6/5 745/29/5 684/28/5
f 686/1/6 746/6/6 747/29/6 687/28/6
f 728/1/2 725/28/2 785/29/2 816/6/2
f 729/1/5 817/6/5 790/29/5 727/28/5
f 730/1/2 728/28/2 816/29/2 826/6/2
f 731/1/5 827/6/5 817/29/5 729/28/5
f 732/1/2 730/28/2 826/29/2 832/6/2
f 733/1/5 833/6/5 827/29/5 731/28/5
f 734/1/2 732/28/2 832/29/2 842/6/2
f 735/1/5 843/6/5 833/29/5 733/28/5
f 736/1/2 734/28/2 842/29/2 848/6/2
f 737/1/5 849/6/5 843/29/5 735/28/5
f 738/1/2 736/28/2 848/29/2 854/6/2
f 739/1/5 855/6/5 849/29/5 737/28/5
f 740/1/2 738/28/2 854/29/2 860/6/2
f 741/1/5 861/6/5 855/29/5 739/28/5
f 742/1/2 740/28/2 860/29/2 870/6/2
f 743/1/5 871/6/5 861/29/5 741/28/5
f 744/1/2 742/28/2 870/29/2 876/6/2
f 745/1/5 877/6/5 871/29/5 743/28/5
f 1183/1/4 1164/6/4 1165/29/4 1184/28/4
f 1201/1/4 1183/6/4 1184/29/4 1202/28/4
f 1224/1/4 1201/6/4 1202/29/4 1225/28/4
f 827/1/5 1225/6/5 1202/29/5 817/28/5
f 1234/1/4 1224/6/4 1225/29/4 1235/28/4
f 833/1/5 1235/6/5 1225/29/5 827/28/5
f 1243/1/4 1234/6/4 1235/29/4 1244/28/4
f 1281/1/4 1243/6/4 1244/29/4 1282/28/4
f 849/1/5 1282/6/5 1244/29/5 843/28/5
f 1290/1/4 1281/6/4 1282/29/4 1291/28/4
f 1321/1/4 1290/6/4 1291/29/4 1322/28/4
f 1344/1/4 1321/6/4 1322/29/4 1345/28/4
f 871/1/5 1345/6/5 1322/29/5 861/28/5
f 1355/1/4 1344/6/4 1345/29/4 1356/28/4
f 1377/1/4 1355/6/4 1356/29/4 1378/28/4

g Red_Wool
usemtl red_wool
f 1184/1/4 1165/6/4 1166/29/4 1185/28/4
f 1185/1/4 1166/6/4 1167/29/4 1186/28/4
f 1186/1/4 1167/6/4 1168/29/4 1187/28/4
f 1187/1/4 1168/6/4 1169/29/4 1188/28/4
f 1188/1/4 1169/6/4 1170/29/4 1189/28/4
f 1189/1/4 1170/6/4 1171/29/4 1190/28/4
f 1190/1/4 1171/6/4 1172/29/4 1191/28/4
f 817/6/1 1203/29/1 791/28/1 790/1/1
f 1202/1/4 1184/6/4 1185/29/4 1204/28/4
f 817/1/6 1202/6/6 1204/29/6 1203/28/6
f 1203/6/1 1205/29/1 795/28/1 791/1/1
f 1204/1/4 1185/6/4 1186/29/4 1206/28/4
f 1203/1/6 1204/6/6 1206/29/6 1205/28/6
f 1205/6/1 1207/29/1 799/28/1 795/1/1
f 1206/1/4 1186/6/4 1187/29/4 1208/28/4
f 1205/1/6 1206/6/6 1208/29/6 1207/28/6
f 1207/6/1 1209/29/1 803/28/1 799/1/1
f 1208/1/4 1187/6/4 1188/29/4 1210/28/4
f 1207/1/6 1208/6/6 1210/29/6 1209/28/6
f 1209/6/1 1211/29/1 807/28/1 803/1/1
f 1210/1/4 1188/6/4 1189/29/4 1212/28/4
f 1209/1/6 1210/6/6 1212/29/6 1211/28/6
f 1211/6/1 820/29/1 811/28/1 807/1/1
f 1212/1/4 1189/6/4 1190/29/4 1213/28/4
f 1211/1/6 1212/6/6 1213/29/6 820/28/6
f 1213/1/4 1190/6/4 1191/29/4 1214/28/4
f 820/1/6 1213/6/6 1214/29/6 821/28/6
f 1214/1/4 1191/6/4 1192/29/4 1215/28/4
f 821/1/6 1214/6/6 1215/29/6 825/28/6
f 843/6/1 1245/29/1 1246/28/1 833/1/1
f 833/6/3 1246/29/3 1247/28/3 1235/1/3
f 1244/1/4 1235/6/4 1247/29/4 1248/28/4
f 843/1/6 1244/6/6 1248/29/6 1245/28/6
f 1245/6/1 1249/29/1 1250/28/1 1246/1/1
f 1246/6/3 1250/29/3 1251/28/3 1247/1/3
f 1248/1/4 1247/6/4 1251/29/4 1252/28/4
f 1245/1/6 1248/6/6 1252/29/6 1249/28/6
f 1249/6/1 1253/29/1 1254/28/1 1250/1/1
f 1250/6/3 1254/29/3 1255/28/3 1251/1/3
f 1252/1/4 1251/6/4 1255/29/4 1256/28/4
f 1249/1/6 1252/6/6 1256/29/6 1253/28/6
f 1253/6/1 1257/29/1 1258/28/1 1254/1/1
f 1254/6/3 1258/29/3 1259/28/3 1255/1/3
f 1256/1/4 1255/6/4 1259/29/4 1260/28/4
f 1253/1/6 1256/6/6 1260/29/6 1257/28/6
f 1257/6/1 1261/29/1 1262/28/1 1258/1/1
f 1258/6/3 1262/29/3 1263/28/3 1259/1/3
f 1260/1/4 1259/6/4 1263/29/4 1264/28/4
f 1257/1/6 1260/6/6 1264/29/6 1261/28/6
f 1261/6/1 1265/29/1 1266/28/1 1262/1/1
f 1262/6/3 1266/29/3 1267/28/3 1263/1/3
f 1264/1/4 1263/6/4 1267/29/4 1268/28/4
f 1261/1/6 1264/6/6 1268/29/6 1265/28/6
f 1265/6/1 1269/29/1 836/28/1 1266/1/1
f 1266/6/3 836/29/3 1270/28/3 1267/1/3
f 1268/1/4 1267/6/4 1270/29/4 1271/28/4
f 1265/1/6 1268/6/6 1271/29/6 1269/28/6
f 1269/6/1 846/29/1 837/28/1 836/1/1
f 836/6/3 837/29/3 1272/28/3 1270/1/3
f 1271/1/4 1270/6/4 1272/29/4 1273/28/4
f 1269/1/6 1271/6/6 1273/29/6 846/28/6
f 837/6/3 841/29/3 1237/28/3 1272/1/3
f 1273/1/4 1272/6/4 1237/29/4 1274/28/4
f 846/1/6 1273/6/6 1274/29/6 847/28/6
f 855/6/1 1292/29/1 1293/28/1 849/1/1
f 849/6/3 1293/29/3 1294/28/3 1282/1/3
f 1292/6/1 1295/29/1 1296/28/1 1293/1/1
f 1293/6/3 1296/29/3 1297/28/3 1294/1/3
f 1295/6/1 1298/29/1 1299/28/1 1296/1/1
f 1296/6/3 1299/29/3 1300/28/3 1297/1/3
f 1298/6/1 1301/29/1 1302/28/1 1299/1/1
f 1299/6/3 1302/29/3 1303/28/3 1300/1/3
f 1301/6/1 1304/29/1 1305/28/1 1302/1/1
f 1302/6/3 1305/29/3 1306/28/3 1303/1/3
f 1304/6/1 1307/29/1 1308/28/1 1305/1/1
f 1305/6/3 1308/29/3 1309/28/3 1306/1/3
f 1307/6/1 866/29/1 1310/28/1 1308/1/1
f 1308/6/3 1310/29/3 1311/28/3 1309/1/3
f 866/6/1 858/29/1 852/28/1 1310/1/1
f 1310/6/3 852/29/3 1312/28/3 1311/1/3
f 852/6/3 853/29/3 1284/28/3 1312/1/3
f 1313/1/4 1312/6/4 1284/29/4 1314/28/4
f 858/1/6 1313/6/6 1314/29/6 859/28/6
f 861/6/1 1323/29/1 1292/28/1 855/1/1
f 861/1/6 1322/6/6 1324/29/6 1323/28/6
f 1323/6/1 1325/29/1 1295/28/1 1292/1/1
f 1323/1/6 1324/6/6 1326/29/6 1325/28/6
f 1325/6/1 1327/29/1 1298/28/1 1295/1/1
f 1325/1/6 1326/6/6 1328/29/6 1327/28/6
f 1327/6/1 1329/29/1 1301/28/1 1298/1/1
f 1327/1/6 1328/6/6 1330/29/6 1329/28/6
f 1329/6/1 1331/29/1 1304/28/1 1301/1/1
f 1329/1/6 1330/6/6 1332/29/6 1331/28/6
f 1331/6/1 1333/29/1 1307/28/1 1304/1/1
f 1331/1/6 1332/6/6 1334/29/6 1333/28/6
f 1333/6/1 865/29/1 866/28/1 1307/1/1
f 1333/1/6 1334/6/6 1335/29/6 865/28/6
f 868/1/5 1336/6/5 1313/29/5 858/28/5
f 865/1/6 1335/6/6 1336/29/6 868/28/6
f 877/6/1 890/29/1 1357/28/1 871/1/1
f 871/6/3 1357/29/3 1358/28/3 1345/1/3
f 890/6/1 894/29/1 1359/28/1 1357/1/1
f 1357/6/3 1359/29/3 1360/28/3 1358/1/3
f 894/6/1 898/29/1 1361/28/1 1359/1/1
f 1359/6/3 1361/29/3 1362/28/3 1360/1/3
f 898/6/1 902/29/1 1363/28/1 1361/1/1
f 1361/6/3 1363/29/3 1364/28/3 1362/1/3
f 902/6/1 906/29/1 1365/28/1 1363/1/1
f 1363/6/3 1365/29/3 1366/28/3 1364/1/3
f 906/6/1 881/29/1 882/28/1 1365/1/1
f 1365/6/3 882/29/3 1367/28/3 1366/1/3
f 882/6/3 874/29/3 1368/28/3 1367/1/3
f 874/6/3 875/29/3 1347/28/3 1368/1/3
f 1378/1/4 1356/6/4 1379/29/4 1380/28/4
f 1380/1/4 1379/6/4 1381/29/4 1382/28/4
f 1382/1/4 1381/6/4 1383/29/4 1384/28/4
f 1384/1/4 1383/6/4 1385/29/4 1386/28/4
f 1386/1/4 1385/6/4 1387/29/4 1388/28/4
f 1388/1/4 1387/6/4 1389/29/4 1390/28/4
f 1390/1/4 1389/6/4 1391/29/4 1392/28/4
f 1225/6/1 1609/29/1 1204/28/1 1202/1/1
f 1225/1/2 1202/28/2 1611/29/2 1610/6/2
f 1202/6/3 1204/29/3 1612/28/3 1611/1/3
f 1610/1/4 1611/6/4 1612/29/4 1613/28/4
f 1609/6/1 1614/29/1 1206/28/1 1204/1/1
f 1204/6/3 1206/29/3 1615/28/3 1612/1/3
f 1613/1/4 1612/6/4 1615/29/4 1616/28/4
f 1614/6/1 1617/29/1 1208/28/1 1206/1/1
f 1206/6/3 1208/29/3 1618/28/3 1615/1/3
f 1616/1/4 1615/6/4 1618/29/4 1619/28/4
f 1617/6/1 1620/29/1 1210/28/1 1208/1/1
f 1208/6/3 1210/29/3 1621/28/3 1618/1/3
f 1619/1/4 1618/6/4 1621/29/4 1622/28/4
f 1620/6/1 1623/29/1 1212/28/1 1210/1/1
f 1210/6/3 1212/29/3 1624/28/3 1621/1/3
f 1622/1/4 1621/6/4 1624/29/4 1625/28/4
f 1623/6/1 1626/29/1 1213/28/1 1212/1/1
f 1212/6/3 1213/29/3 1627/28/3 1624/1/3
f 1625/1/4 1624/6/4 1627/29/4 1628/28/4
f 1626/6/1 1629/29/1 1214/28/1 1213/1/1
f 1213/6/3 1214/29/3 1630/28/3 1627/1/3
f 1628/1/4 1627/6/4 1630/29/4 1631/28/4
f 1629/6/1 1226/29/1 1215/28/1 1214/1/1
f 1214/6/3 1215/29/3 1632/28/3 1630/1/3
f 1631/1/4 1630/6/4 1632/29/4 1633/28/4
f 1226/1/5 1633/6/5 1632/29/5 1215/28/5
f 1235/6/1 1247/29/1 1609/28/1 1225/1/1
f 1235/1/2 1225/28/2 1610/29/2 1634/6/2
f 1634/1/4 1610/6/4 1613/29/4 1635/28/4
f 1235/1/6 1634/6/6 1635/29/6 1247/28/6
f 1247/6/1 1251/29/1 1614/28/1 1609/1/1
f 1635/1/4 1613/6/4 1616/29/4 1636/28/4
f 1247/1/6 1635/6/6 1636/29/6 1251/28/6
f 1251/6/1 1255/29/1 1617/28/1 1614/1/1
f 1636/1/4 1616/6/4 1619/29/4 1637/28/4
f 1251/1/6 1636/6/6 1637/29/6 1255/28/6
f 1255/6/1 1259/29/1 1620/28/1 1617/1/1
f 1637/1/4 1619/6/4 1622/29/4 1638/28/4
f 1255/1/6 1637/6/6 1638/29/6 1259/28/6
f 1259/6/1 1263/29/1 1623/28/1 1620/1/1
f 1638/1/4 1622/6/4 1625/29/4 1639/28/4
f 1259/1/6 1638/6/6 1639/29/6 1263/28/6
f 1263/6/1 1267/29/1 1626/28/1 1623/1/1
f 1639/1/4 1625/6/4 1628/29/4 1640/28/4
f 1263/1/6 1639/6/6 1640/29/6 1267/28/6
f 1267/6/1 1270/29/1 1629/28/1 1626/1/1
f 1640/1/4 1628/6/4 1631/29/4 1641/28/4
f 1267/1/6 1640/6/6 1641/29/6 1270/28/6
f 1270/6/1 1272/29/1 1226/28/1 1629/1/1
f 1641/1/4 1631/6/4 1633/29/4 1642/28/4
f 1270/1/6 1641/6/6 1642/29/6 1272/28/6
f 1272/6/1 1237/29/1 1227/28/1 1226/1/1
f 1226/6/3 1227/29/3 1643/28/3 1633/1/3
f 1642/1/4 1633/6/4 1643/29/4 1644/28/4
f 1237/1/5 1644/6/5 1643/29/5 1227/28/5
f 1272/1/6 1642/6/6 1644/29/6 1237/28/6
f 1282/6/1 1294/29/1 1248/28/1 1244/1/1
f 1282/1/2 1244/28/2 1646/29/2 1645/6/2
f 1244/6/3 1248/29/3 1647/28/3 1646/1/3
f 1645/1/4 1646/6/4 1647/29/4 1648/28/4
f 1294/6/1 1297/29/1 1252/28/1 1248/1/1
f 1248/6/3 1252/29/3 1649/28/3 1647/1/3
f 1648/1/4 1647/6/4 1649/29/4 1650/28/4
f 1297/6/1 1300/29/1 1256/28/1 1252/1/1
f 1252/6/3 1256/29/3 1651/28/3 1649/1/3
f 1650/1/4 1649/6/4 1651/29/4 1652/28/4
f 1300/6/1 1303/29/1 1260/28/1 1256/1/1
f 1256/6/3 1260/29/3 1653/28/3 1651/1/3
f 1652/1/4 1651/6/4 1653/29/4 1654/28/4
f 1303/6/1 1306/29/1 1264/28/1 1260/1/1
f 1260/6/3 1264/29/3 1655/28/3 1653/1/3
f 1654/1/4 1653/6/4 1655/29/4 1656/28/4
f 1306/6/1 1309/29/1 1268/28/1 1264/1/1
f 1264/6/3 1268/29/3 1657/28/3 1655/1/3
f 1656/1/4 1655/6/4 1657/29/4 1658/28/4
f 1309/6/1 1311/29/1 1271/28/1 1268/1/1
f 1268/6/3 1271/29/3 1659/28/3 1657/1/3
f 1658/1/4 1657/6/4 1659/29/4 1660/28/4
f 1311/6/1 1312/29/1 1273/28/1 1271/1/1
f 1271/6/3 1273/29/3 1661/28/3 1659/1/3
f 1660/1/4 1659/6/4 1661/29/4 1662/28/4
f 1312/6/1 1284/29/1 1274/28/1 1273/1/1
f 1273/6/3 1274/29/3 1663/28/3 1661/1/3
f 1662/1/4 1661/6/4 1663/29/4 1664/28/4
f 1284/1/5 1664/6/5 1663/29/5 1274/28/5
f 1312/1/6 1662/6/6 1664/29/6 1284/28/6
f 1291/1/2 1282/28/2 1645/29/2 1665/6/2
f 1665/1/4 1645/6/4 1648/29/4 1666/28/4
f 1666/1/4 1648/6/4 1650/29/4 1667/28/4
f 1667/1/4 1650/6/4 1652/29/4 1668/28/4
f 1668/1/4 1652/6/4 1654/29/4 1669/28/4
f 1669/1/4 1654/6/4 1656/29/4 1670/28/4
f 1670/1/4 1656/6/4 1658/29/4 1671/28/4
f 1671/1/4 1658/6/4 1660/29/4 1672/28/4
f 1672/1/4 1660/6/4 1662/29/4 1673/28/4
f 1313/1/5 1673/6/5 1662/29/5 1312/28/5
f 1322/1/2 1291/28/2 1665/29/2 1674/6/2
f 1674/1/4 1665/6/4 1666/29/4 1675/28/4
f 1675/1/4 1666/6/4 1667/29/4 1676/28/4
f 1676/1/4 1667/6/4 1668/29/4 1677/28/4
f 1677/1/4 1668/6/4 1669/29/4 1678/28/4
f 1678/1/4 1669/6/4 1670/29/4 1679/28/4
f 1679/1/4 1670/6/4 1671/29/4 1680/28/4
f 1680/1/4 1671/6/4 1672/29/4 1681/28/4
f 1681/1/4 1672/6/4 1673/29/4 1682/28/4
f 1336/6/1 1338/29/1 1314/28/1 1313/1/1
f 1313/6/3 1314/29/3 1683/28/3 1673/1/3
f 1682/1/4 1673/6/4 1683/29/4 1684/28/4
f 1338/1/5 1684/6/5 1683/29/5 1314/28/5
f 1336/1/6 1682/6/6 1684/29/6 1338/28/6
f 1345/6/1 1358/29/1 1324/28/1 1322/1/1
f 1345/1/2 1322/28/2 1674/29/2 1685/6/2
f 1685/1/4 1674/6/4 1675/29/4 1686/28/4
f 1358/6/1 1360/29/1 1326/28/1 1324/1/1
f 1686/1/4 1675/6/4 1676/29/4 1687/28/4
f 1360/6/1 1362/29/1 1328/28/1 1326/1/1
f 1687/1/4 1676/6/4 1677/29/4 1688/28/4
f 1362/6/1 1364/29/1 1330/28/1 1328/1/1
f 1688/1/4 1677/6/4 1678/29/4 1689/28/4
f 1364/6/1 1366/29/1 1332/28/1 1330/1/1
f 1689/1/4 1678/6/4 1679/29/4 1690/28/4
f 1366/6/1 1367/29/1 1334/28/1 1332/1/1
f 1690/1/4 1679/6/4 1680/29/4 1691/28/4
f 1367/6/1 1368/29/1 1335/28/1 1334/1/1
f 1691/1/4 1680/6/4 1681/29/4 1692/28/4
f 1368/6/1 1347/29/1 1336/28/1 1335/1/1
f 1692/1/4 1681/6/4 1682/29/4 1693/28/4
f 1347/1/5 1693/6/5 1682/29/5 1336/28/5
f 1356/1/2 1345/28/2 1685/29/2 1694/6/2
f 1694/1/4 1685/6/4 1686/29/4 1695/28/4
f 1356/1/6 1694/6/6 1695/29/6 1379/28/6
f 1695/1/4 1686/6/4 1687/29/4 1696/28/4
f 1379/1/6 1695/6/6 1696/29/6 1381/28/6
f 1696/1/4 1687/6/4 1688/29/4 1697/28/4
f 1381/1/6 1696/6/6 1697/29/6 1383/28/6
f 1697/1/4 1688/6/4 1689/29/4 1698/28/4
f 1383/1/6 1697/6/6 1698/29/6 1385/28/6
f 1698/1/4 1689/6/4 1690/29/4 1699/28/4
f 1385/1/6 1698/6/6 1699/29/6 1387/28/6
f 1699/1/4 1690/6/4 1691/29/4 1700/28/4
f 1387/1/6 1699/6/6 1700/29/6 1389/28/6
f 1700/1/4 1691/6/4 1692/29/4 1701/28/4
f 1389/1/6 1700/6/6 1701/29/6 1391/28/6
f 1701/1/4 1692/6/4 1693/29/4 1702/28/4
f 1370/1/5 1702/6/5 1693/29/5 1347/28/5
f 1391/1/6 1701/6/6 1702/29/6 1370/28/6

g Block_of_Gold
usemtl gold_block
f 850/6/1 851/29/1 845/28/1 844/1/1
f 850/1/2 844/28/2 846/29/2 852/6/2
f 852/1/4 846/6/4 847/29/4 853/28/4
f 851/1/5 853/6/5 847/29/5 845/28/5

g Black_Concrete_Powder
usemtl black_concrete_powder
f 50/6/1 51/29/1 52/28/1 49/1/1
f 50/1/2 49/28/2 54/29/2 53/6/2
f 49/6/3 52/29/3 55/28/3 54/1/3
f 51/1/5 56/6/5 55/29/5 52/28/5
f 57/6/1 58/29/1 51/28/1 50/1/1
f 57/1/2 50/28/2 53/29/2 59/6/2
f 58/1/5 60/6/5 56/29/5 51/28/5
f 61/6/1 62/29/1 58/28/1 57/1/1
f 61/1/2 57/28/2 59/29/2 63/6/2
f 62/1/5 64/6/5 60/29/5 58/28/5
f 65/6/1 66/29/1 62/28/1 61/1/1
f 65/1/2 61/28/2 63/29/2 67/6/2
f 66/1/5 68/6/5 64/29/5 62/28/5
f 69/6/1 70/29/1 66/28/1 65/1/1
f 69/1/2 65/28/2 67/29/2 71/6/2
f 70/1/5 72/6/5 68/29/5 66/28/5
f 73/6/1 74/29/1 70/28/1 69/1/1
f 73/1/2 69/28/2 71/29/2 75/6/2
f 74/1/5 76/6/5 72/29/5 70/28/5
f 77/6/1 78/29/1 74/28/1 73/1/1
f 77/1/2 73/28/2 75/29/2 79/6/2
f 78/1/5 80/6/5 76/29/5 74/28/5
f 81/6/1 82/29/1 78/28/1 77/1/1
f 81/1/2 77/28/2 79/29/2 83/6/2
f 82/1/5 84/6/5 80/29/5 78/28/5
f 85/6/1 86/29/1 82/28/1 81/1/1
f 85/1/2 81/28/2 83/29/2 87/6/2
f 86/1/5 88/6/5 84/29/5 82/28/5
f 89/6/1 90/29/1 86/28/1 85/1/1
f 89/1/2 85/28/2 87/29/2 91/6/2
f 90/1/5 92/6/5 88/29/5 86/28/5
f 93/6/1 94/29/1 90/28/1 89/1/1
f 93/1/2 89/28/2 91/29/2 95/6/2
f 94/1/5 96/6/5 92/29/5 90/28/5
f 97/6/1 98/29/1 94/28/1 93/1/1
f 97/1/2 93/28/2 95/29/2 99/6/2
f 98/1/5 100/6/5 96/29/5 94/28/5
f 101/6/1 102/29/1 98/28/1 97/1/1
f 101/1/2 97/28/2 99/29/2 103/6/2
f 102/1/5 104/6/5 100/29/5 98/28/5
f 105/6/1 106/29/1 102/28/1 101/1/1
f 105/1/2 101/28/2 103/29/2 107/6/2
f 106/1/5 108/6/5 104/29/5 102/28/5
f 109/6/1 110/29/1 106/28/1 105/1/1
f 109/1/2 105/28/2 107/29/2 111/6/2
f 110/1/5 112/6/5 108/29/5 106/28/5
f 113/6/1 114/29/1 110/28/1 109/1/1
f 113/1/2 109/28/2 111/29/2 115/6/2
f 114/1/5 116/6/5 112/29/5 110/28/5
f 117/6/1 118/29/1 114/28/1 113/1/1
f 117/1/2 113/28/2 115/29/2 119/6/2
f 118/1/5 120/6/5 116/29/5 114/28/5
f 121/6/1 122/29/1 118/28/1 117/1/1
f 121/1/2 117/28/2 119/29/2 123/6/2
f 122/1/5 124/6/5 120/29/5 118/28/5
f 125/6/1 126/29/1 122/28/1 121/1/1
f 125/1/2 121/28/2 123/29/2 127/6/2
f 126/1/5 128/6/5 124/29/5 122/28/5
f 129/6/1 130/29/1 126/28/1 125/1/1
f 129/1/2 125/28/2 127/29/2 131/6/2
f 130/1/5 132/6/5 128/29/5 126/28/5
f 133/6/1 134/29/1 130/28/1 129/1/1
f 133/1/2 129/28/2 131/29/2 135/6/2
f 134/1/5 136/6/5 132/29/5 130/28/5
f 137/6/1 138/29/1 134/28/1 133/1/1
f 137/1/2 133/28/2 135/29/2 139/6/2
f 138/1/5 140/6/5 136/29/5 134/28/5
f 141/6/1 142/29/1 138/28/1 137/1/1
f 141/1/2 137/28/2 139/29/2 143/6/2
f 142/1/5 144/6/5 140/29/5 138/28/5
f 145/6/1 146/29/1 142/28/1 141/1/1
f 145/1/2 141/28/2 143/29/2 147/6/2
f 146/1/5 148/6/5 144/29/5 142/28/5
f 149/6/1 150/29/1 146/28/1 145/1/1
f 149/1/2 145/28/2 147/29/2 151/6/2
f 150/1/5 152/6/5 148/29/5 146/28/5
f 153/6/1 154/29/1 150/28/1 149/1/1
f 153/1/2 149/28/2 151/29/2 155/6/2
f 154/1/5 156/6/5 152/29/5 150/28/5
f 157/6/1 158/29/1 154/28/1 153/1/1
f 157/1/2 153/28/2 155/29/2 159/6/2
f 158/1/5 160/6/5 156/29/5 154/28/5
f 161/6/1 162/29/1 158/28/1 157/1/1
f 161/1/2 157/28/2 159/29/2 163/6/2
f 162/1/5 164/6/5 160/29/5 158/28/5
f 161/1/6 163/6/6 164/29/6 162/28/6
f 53/1/2 54/28/2 166/29/2 165/6/2
f 54/6/3 55/29/3 167/28/3 166/1/3
f 56/1/5 168/6/5 167/29/5 55/28/5
f 59/1/2 53/28/2 165/29/2 169/6/2
f 60/1/5 170/6/5 168/29/5 56/28/5
f 63/1/2 59/28/2 169/29/2 171/6/2
f 64/1/5 172/6/5 170/29/5 60/28/5
f 67/1/2 63/28/2 171/29/2 173/6/2
f 68/1/5 174/6/5 172/29/5 64/28/5
f 71/1/2 67/28/2 173/29/2 175/6/2
f 72/1/5 176/6/5 174/29/5 68/28/5
f 75/1/2 71/28/2 175/29/2 177/6/2
f 76/1/5 178/6/5 176/29/5 72/28/5
f 79/1/2 75/28/2 177/29/2 179/6/2
f 80/1/5 180/6/5 178/29/5 76/28/5
f 83/1/2 79/28/2 179/29/2 181/6/2
f 84/1/5 182/6/5 180/29/5 80/28/5
f 87/1/2 83/28/2 181/29/2 183/6/2
f 88/1/5 184/6/5 182/29/5 84/28/5
f 91/1/2 87/28/2 183/29/2 185/6/2
f 92/1/5 186/6/5 184/29/5 88/28/5
f 95/1/2 91/28/2 185/29/2 187/6/2
f 96/1/5 188/6/5 186/29/5 92/28/5
f 99/1/2 95/28/2 187/29/2 189/6/2
f 100/1/5 190/6/5 188/29/5 96/28/5
f 103/1/2 99/28/2 189/29/2 191/6/2
f 104/1/5 192/6/5 190/29/5 100/28/5
f 107/1/2 103/28/2 191/29/2 193/6/2
f 108/1/5 194/6/5 192/29/5 104/28/5
f 111/1/2 107/28/2 193/29/2 195/6/2
f 112/1/5 196/6/5 194/29/5 108/28/5
f 115/1/2 111/28/2 195/29/2 197/6/2
f 116/1/5 198/6/5 196/29/5 112/28/5
f 119/1/2 115/28/2 197/29/2 199/6/2
f 120/1/5 200/6/5 198/29/5 116/28/5
f 123/1/2 119/28/2 199/29/2 201/6/2
f 124/1/5 202/6/5 200/29/5 120/28/5
f 127/1/2 123/28/2 201/29/2 203/6/2
f 128/1/5 204/6/5 202/29/5 124/28/5
f 131/1/2 127/28/2 203/29/2 205/6/2
f 132/1/5 206/6/5 204/29/5 128/28/5
f 135/1/2 131/28/2 205/29/2 207/6/2
f 136/1/5 208/6/5 206/29/5 132/28/5
f 139/1/2 135/28/2 207/29/2 209/6/2
f 140/1/5 210/6/5 208/29/5 136/28/5
f 143/1/2 139/28/2 209/29/2 211/6/2
f 144/1/5 212/6/5 210/29/5 140/28/5
f 147/1/2 143/28/2 211/29/2 213/6/2
f 148/1/5 214/6/5 212/29/5 144/28/5
f 151/1/2 147/28/2 213/29/2 215/6/2
f 152/1/5 216/6/5 214/29/5 148/28/5
f 155/1/2 151/28/2 215/29/2 217/6/2
f 156/1/5 218/6/5 216/29/5 152/28/5
f 159/1/2 155/28/2 217/29/2 219/6/2
f 160/1/5 220/6/5 218/29/5 156/28/5
f 163/1/2 159/28/2 219/29/2 221/6/2
f 164/1/5 222/6/5 220/29/5 160/28/5
f 163/1/6 221/6/6 222/29/6 164/28/6
f 165/1/2 166/28/2 224/29/2 223/6/2
f 166/6/3 167/29/3 225/28/3 224/1/3
f 168/1/5 226/6/5 225/29/5 167/28/5
f 169/1/2 165/28/2 223/29/2 227/6/2
f 170/1/5 228/6/5 226/29/5 168/28/5
f 171/1/2 169/28/2 227/29/2 229/6/2
f 172/1/5 230/6/5 228/29/5 170/28/5
f 173/1/2 171/28/2 229/29/2 231/6/2
f 174/1/5 232/6/5 230/29/5 172/28/5
f 175/1/2 173/28/2 231/29/2 233/6/2
f 176/1/5 234/6/5 232/29/5 174/28/5
f 177/1/2 175/28/2 233/29/2 235/6/2
f 178/1/5 236/6/5 234/29/5 176/28/5
f 179/1/2 177/28/2 235/29/2 237/6/2
f 180/1/5 238/6/5 236/29/5 178/28/5
f 181/1/2 179/28/2 237/29/2 239/6/2
f 182/1/5 240/6/5 238/29/5 180/28/5
f 183/1/2 181/28/2 239/29/2 241/6/2
f 184/1/5 242/6/5 240/29/5 182/28/5
f 185/1/2 183/28/2 241/29/2 243/6/2
f 186/1/5 244/6/5 242/29/5 184/28/5
f 187/1/2 185/28/2 243/29/2 245/6/2
f 188/1/5 246/6/5 244/29/5 186/28/5
f 189/1/2 187/28/2 245/29/2 247/6/2
f 190/1/5 248/6/5 246/29/5 188/28/5
f 191/1/2 189/28/2 247/29/2 249/6/2
f 192/1/5 250/6/5 248/29/5 190/28/5
f 193/1/2 191/28/2 249/29/2 251/6/2
f 194/1/5 252/6/5 250/29/5 192/28/5
f 195/1/2 193/28/2 251/29/2 253/6/2
f 196/1/5 254/6/5 252/29/5 194/28/5
f 197/1/2 195/28/2 253/29/2 255/6/2
f 198/1/5 256/6/5 254/29/5 196/28/5
f 199/1/2 197/28/2 255/29/2 257/6/2
f 200/1/5 258/6/5 256/29/5 198/28/5
f 201/1/2 199/28/2 257/29/2 259/6/2
f 202/1/5 260/6/5 258/29/5 200/28/5
f 203/1/2 201/28/2 259/29/2 261/6/2
f 204/1/5 262/6/5 260/29/5 202/28/5
f 205/1/2 203/28/2 261/29/2 263/6/2
f 206/1/5 264/6/5 262/29/5 204/28/5
f 207/1/2 205/28/2 263/29/2 265/6/2
f 208/1/5 266/6/5 264/29/5 206/28/5
f 209/1/2 207/28/2 265/29/2 267/6/2
f 210/1/5 268/6/5 266/29/5 208/28/5
f 211/1/2 209/28/2 267/29/2 269/6/2
f 212/1/5 270/6/5 268/29/5 210/28/5
f 213/1/2 211/28/2 269/29/2 271/6/2
f 214/1/5 272/6/5 270/29/5 212/28/5
f 215/1/2 213/28/2 271/29/2 273/6/2
f 216/1/5 274/6/5 272/29/5 214/28/5
f 217/1/2 215/28/2 273/29/2 275/6/2
f 218/1/5 276/6/5 274/29/5 216/28/5
f 219/1/2 217/28/2 275/29/2 277/6/2
f 220/1/5 278/6/5 276/29/5 218/28/5
f 221/1/2 219/28/2 277/29/2 279/6/2
f 222/1/5 280/6/5 278/29/5 220/28/5
f 221/1/6 279/6/6 280/29/6 222/28/6
f 223/1/2 224/28/2 282/29/2 281/6/2
f 224/6/3 225/29/3 283/28/3 282/1/3
f 226/1/5 284/6/5 283/29/5 225/28/5
f 227/1/2 223/28/2 281/29/2 285/6/2
f 228/1/5 286/6/5 284/29/5 226/28/5
f 229/1/2 227/28/2 285/29/2 287/6/2
f 230/1/5 288/6/5 286/29/5 228/28/5
f 231/1/2 229/28/2 287/29/2 289/6/2
f 232/1/5 290/6/5 288/29/5 230/28/5
f 233/1/2 231/28/2 289/29/2 291/6/2
f 234/1/5 292/6/5 290/29/5 232/28/5
f 235/1/2 233/28/2 291/29/2 293/6/2
f 236/1/5 294/6/5 292/29/5 234/28/5
f 237/1/2 235/28/2 293/29/2 295/6/2
f 238/1/5 296/6/5 294/29/5 236/28/5
f 239/1/2 237/28/2 295/29/2 297/6/2
f 240/1/5 298/6/5 296/29/5 238/28/5
f 241/1/2 239/28/2 297/29/2 299/6/2
f 242/1/5 300/6/5 298/29/5 240/28/5
f 243/1/2 241/28/2 299/29/2 301/6/2
f 244/1/5 302/6/5 300/29/5 242/28/5
f 245/1/2 243/28/2 301/29/2 303/6/2
f 246/1/5 304/6/5 302/29/5 244/28/5
f 247/1/2 245/28/2 303/29/2 305/6/2
f 248/1/5 306/6/5 304/29/5 246/28/5
f 249/1/2 247/28/2 305/29/2 307/6/2
f 250/1/5 308/6/5 306/29/5 248/28/5
f 251/1/2 249/28/2 307/29/2 309/6/2
f 252/1/5 310/6/5 308/29/5 250/28/5
f 253/1/2 251/28/2 309/29/2 311/6/2
f 254/1/5 312/6/5 310/29/5 252/28/5
f 255/1/2 253/28/2 311/29/2 313/6/2
f 256/1/5 314/6/5 312/29/5 254/28/5
f 257/1/2 255/28/2 313/29/2 315/6/2
f 258/1/5 316/6/5 314/29/5 256/28/5
f 259/1/2 257/28/2 315/29/2 317/6/2
f 260/1/5 318/6/5 316/29/5 258/28/5
f 261/1/2 259/28/2 317/29/2 319/6/2
f 262/1/5 320/6/5 318/29/5 260/28/5
f 263/1/2 261/28/2 319/29/2 321/6/2
f 264/1/5 322/6/5 320/29/5 262/28/5
f 265/1/2 263/28/2 321/29/2 323/6/2
f 266/1/5 324/6/5 322/29/5 264/28/5
f 267/1/2 265/28/2 323/29/2 325/6/2
f 268/1/5 326/6/5 324/29/5 266/28/5
f 269/1/2 267/28/2 325/29/2 327/6/2
f 270/1/5 328/6/5 326/29/5 268/28/5
f 271/1/2 269/28/2 327/29/2 329/6/2
f 272/1/5 330/6/5 328/29/5 270/28/5
f 273/1/2 271/28/2 329/29/2 331/6/2
f 274/1/5 332/6/5 330/29/5 272/28/5
f 275/1/2 273/28/2 331/29/2 333/6/2
f 276/1/5 334/6/5 332/29/5 274/28/5
f 277/1/2 275/28/2 333/29/2 335/6/2
f 278/1/5 336/6/5 334/29/5 276/28/5
f 279/1/2 277/28/2 335/29/2 337/6/2
f 280/1/5 338/6/5 336/29/5 278/28/5
f 279/1/6 337/6/6 338/29/6 280/28/6
f 281/1/2 282/28/2 340/29/2 339/6/2
f 282/6/3 283/29/3 341/28/3 340/1/3
f 284/1/5 342/6/5 341/29/5 283/28/5
f 285/1/2 281/28/2 339/29/2 343/6/2
f 286/1/5 344/6/5 342/29/5 284/28/5
f 287/1/2 285/28/2 343/29/2 345/6/2
f 288/1/5 346/6/5 344/29/5 286/28/5
f 289/1/2 287/28/2 345/29/2 347/6/2
f 290/1/5 348/6/5 346/29/5 288/28/5
f 291/1/2 289/28/2 347/29/2 349/6/2
f 292/1/5 350/6/5 348/29/5 290/28/5
f 293/1/2 291/28/2 349/29/2 351/6/2
f 294/1/5 352/6/5 350/29/5 292/28/5
f 295/1/2 293/28/2 351/29/2 353/6/2
f 296/1/5 354/6/5 352/29/5 294/28/5
f 297/1/2 295/28/2 353/29/2 355/6/2
f 298/1/5 356/6/5 354/29/5 296/28/5
f 299/1/2 297/28/2 355/29/2 357/6/2
f 300/1/5 358/6/5 356/29/5 298/28/5
f 301/1/2 299/28/2 357/29/2 359/6/2
f 302/1/5 360/6/5 358/29/5 300/28/5
f 303/1/2 301/28/2 359/29/2 361/6/2
f 304/1/5 362/6/5 360/29/5 302/28/5
f 305/1/2 303/28/2 361/29/2 363/6/2
f 306/1/5 364/6/5 362/29/5 304/28/5
f 307/1/2 305/28/2 363/29/2 365/6/2
f 308/1/5 366/6/5 364/29/5 306/28/5
f 309/1/2 307/28/2 365/29/2 367/6/2
f 310/1/5 368/6/5 366/29/5 308/28/5
f 311/1/2 309/28/2 367/29/2 369/6/2
f 312/1/5 370/6/5 368/29/5 310/28/5
f 313/1/2 311/28/2 369/29/2 371/6/2
f 314/1/5 372/6/5 370/29/5 312/28/5
f 315/1/2 313/28/2 371/29/2 373/6/2
f 316/1/5 374/6/5 372/29/5 314/28/5
f 317/1/2 315/28/2 373/29/2 375/6/2
f 318/1/5 376/6/5 374/29/5 316/28/5
f 319/1/2 317/28/2 375/29/2 377/6/2
f 320/1/5 378/6/5 376/29/5 318/28/5
f 321/1/2 319/28/2 377/29/2 379/6/2
f 322/1/5 380/6/5 378/29/5 320/28/5
f 323/1/2 321/28/2 379/29/2 381/6/2
f 324/1/5 382/6/5 380/29/5 322/28/5
f 325/1/2 323/28/2 381/29/2 383/6/2
f 326/1/5 384/6/5 382/29/5 324/28/5
f 327/1/2 325/28/2 383/29/2 385/6/2
f 328/1/5 386/6/5 384/29/5 326/28/5
f 329/1/2 327/28/2 385/29/2 387/6/2
f 330/1/5 388/6/5 386/29/5 328/28/5
f 331/1/2 329/28/2 387/29/2 389/6/2
f 332/1/5 390/6/5 388/29/5 330/28/5
f 333/1/2 331/28/2 389/29/2 391/6/2
f 334/1/5 392/6/5 390/29/5 332/28/5
f 335/1/2 333/28/2 391/29/2 393/6/2
f 336/1/5 394/6/5 392/29/5 334/28/5
f 337/1/2 335/28/2 393/29/2 395/6/2
f 338/1/5 396/6/5 394/29/5 336/28/5
f 337/1/6 395/6/6 396/29/6 338/28/6
f 339/1/2 340/28/2 398/29/2 397/6/2
f 340/6/3 341/29/3 399/28/3 398/1/3
f 342/1/5 400/6/5 399/29/5 341/28/5
f 343/1/2 339/28/2 397/29/2 401/6/2
f 344/1/5 402/6/5 400/29/5 342/28/5
f 345/1/2 343/28/2 401/29/2 403/6/2
f 346/1/5 404/6/5 402/29/5 344/28/5
f 347/1/2 345/28/2 403/29/2 405/6/2
f 348/1/5 406/6/5 404/29/5 346/28/5
f 349/1/2 347/28/2 405/29/2 407/6/2
f 350/1/5 408/6/5 406/29/5 348/28/5
f 351/1/2 349/28/2 407/29/2 409/6/2
f 352/1/5 410/6/5 408/29/5 350/28/5
f 353/1/2 351/28/2 409/29/2 411/6/2
f 354/1/5 412/6/5 410/29/5 352/28/5
f 355/1/2 353/28/2 411/29/2 413/6/2
f 356/1/5 414/6/5 412/29/5 354/28/5
f 357/1/2 355/28/2 413/29/2 415/6/2
f 358/1/5 416/6/5 414/29/5 356/28/5
f 359/1/2 357/28/2 415/29/2 417/6/2
f 360/1/5 418/6/5 416/29/5 358/28/5
f 361/1/2 359/28/2 417/29/2 419/6/2
f 362/1/5 420/6/5 418/29/5 360/28/5
f 363/1/2 361/28/2 419/29/2 421/6/2
f 364/1/5 422/6/5 420/29/5 362/28/5
f 365/1/2 363/28/2 421/29/2 423/6/2
f 366/1/5 424/6/5 422/29/5 364/28/5
f 367/1/2 365/28/2 423/29/2 425/6/2
f 368/1/5 426/6/5 424/29/5 366/28/5
f 369/1/2 367/28/2 425/29/2 427/6/2
f 370/1/5 428/6/5 426/29/5 368/28/5
f 371/1/2 369/28/2 427/29/2 429/6/2
f 372/1/5 430/6/5 428/29/5 370/28/5
f 373/1/2 371/28/2 429/29/2 431/6/2
f 374/1/5 432/6/5 430/29/5 372/28/5
f 375/1/2 373/28/2 431/29/2 433/6/2
f 376/1/5 434/6/5 432/29/5 374/28/5
f 377/1/2 375/28/2 433/29/2 435/6/2
f 378/1/5 436/6/5 434/29/5 376/28/5
f 379/1/2 377/28/2 435/29/2 437/6/2
f 380/1/5 438/6/5 436/29/5 378/28/5
f 381/1/2 379/28/2 437/29/2 439/6/2
f 382/1/5 440/6/5 438/29/5 380/28/5
f 383/1/2 381/28/2 439/29/2 441/6/2
f 384/1/5 442/6/5 440/29/5 382/28/5
f 385/1/2 383/28/2 441/29/2 443/6/2
f 386/1/5 444/6/5 442/29/5 384/28/5
f 387/1/2 385/28/2 443/29/2 445/6/2
f 388/1/5 446/6/5 444/29/5 386/28/5
f 389/1/2 387/28/2 445/29/2 447/6/2
f 390/1/5 448/6/5 446/29/5 388/28/5
f 391/1/2 389/28/2 447/29/2 449/6/2
f 392/1/5 450/6/5 448/29/5 390/28/5
f 393/1/2 391/28/2 449/29/2 451/6/2
f 394/1/5 452/6/5 450/29/5 392/28/5
f 395/1/2 393/28/2 451/29/2 453/6/2
f 396/1/5 454/6/5 452/29/5 394/28/5
f 395/1/6 453/6/6 454/29/6 396/28/6
f 397/1/2 398/28/2 456/29/2 455/6/2
f 398/6/3 399/29/3 457/28/3 456/1/3
f 400/1/5 458/6/5 457/29/5 399/28/5
f 401/1/2 397/28/2 455/29/2 459/6/2
f 402/1/5 460/6/5 458/29/5 400/28/5
f 403/1/2 401/28/2 459/29/2 461/6/2
f 404/1/5 462/6/5 460/29/5 402/28/5
f 405/1/2 403/28/2 461/29/2 463/6/2
f 406/1/5 464/6/5 462/29/5 404/28/5
f 407/1/2 405/28/2 463/29/2 465/6/2
f 408/1/5 466/6/5 464/29/5 406/28/5
f 409/1/2 407/28/2 465/29/2 467/6/2
f 410/1/5 468/6/5 466/29/5 408/28/5
f 411/1/2 409/28/2 467/29/2 469/6/2
f 412/1/5 470/6/5 468/29/5 410/28/5
f 413/1/2 411/28/2 469/29/2 471/6/2
f 414/1/5 472/6/5 470/29/5 412/28/5
f 415/1/2 413/28/2 471/29/2 473/6/2
f 416/1/5 474/6/5 472/29/5 414/28/5
f 417/1/2 415/28/2 473/29/2 475/6/2
f 418/1/5 476/6/5 474/29/5 416/28/5
f 419/1/2 417/28/2 475/29/2 477/6/2
f 420/1/5 478/6/5 476/29/5 418/28/5
f 421/1/2 419/28/2 477/29/2 479/6/2
f 422/1/5 480/6/5 478/29/5 420/28/5
f 423/1/2 421/28/2 479/29/2 481/6/2
f 481/1/4 479/6/4 480/29/4 482/28/4
f 424/1/5 482/6/5 480/29/5 422/28/5
f 425/1/2 423/28/2 481/29/2 483/6/2
f 483/1/4 481/6/4 482/29/4 484/28/4
f 426/1/5 484/6/5 482/29/5 424/28/5
f 427/1/2 425/28/2 483/29/2 485/6/2
f 485/1/4 483/6/4 484/29/4 486/28/4
f 428/1/5 486/6/5 484/29/5 426/28/5
f 429/1/2 427/28/2 485/29/2 487/6/2
f 487/1/4 485/6/4 486/29/4 488/28/4
f 430/1/5 488/6/5 486/29/5 428/28/5
f 431/1/2 429/28/2 487/29/2 489/6/2
f 489/1/4 487/6/4 488/29/4 490/28/4
f 432/1/5 490/6/5 488/29/5 430/28/5
f 433/1/2 431/28/2 489/29/2 491/6/2
f 434/1/5 492/6/5 490/29/5 432/28/5
f 435/1/2 433/28/2 491/29/2 493/6/2
f 436/1/5 494/6/5 492/29/5 434/28/5
f 437/1/2 435/28/2 493/29/2 495/6/2
f 438/1/5 496/6/5 494/29/5 436/28/5
f 439/1/2 437/28/2 495/29/2 497/6/2
f 440/1/5 498/6/5 496/29/5 438/28/5
f 441/1/2 439/28/2 497/29/2 499/6/2
f 442/1/5 500/6/5 498/29/5 440/28/5
f 443/1/2 441/28/2 499/29/2 501/6/2
f 444/1/5 502/6/5 500/29/5 442/28/5
f 445/1/2 443/28/2 501/29/2 503/6/2
f 446/1/5 504/6/5 502/29/5 444/28/5
f 447/1/2 445/28/2 503/29/2 505/6/2
f 448/1/5 506/6/5 504/29/5 446/28/5
f 449/1/2 447/28/2 505/29/2 507/6/2
f 450/1/5 508/6/5 506/29/5 448/28/5
f 451/1/2 449/28/2 507/29/2 509/6/2
f 452/1/5 510/6/5 508/29/5 450/28/5
f 453/1/2 451/28/2 509/29/2 511/6/2
f 454/1/5 512/6/5 510/29/5 452/28/5
f 453/1/6 511/6/6 512/29/6 454/28/6
f 455/1/2 456/28/2 514/29/2 513/6/2
f 456/6/3 457/29/3 515/28/3 514/1/3
f 458/1/5 516/6/5 515/29/5 457/28/5
f 459/1/2 455/28/2 513/29/2 517/6/2
f 460/1/5 518/6/5 516/29/5 458/28/5
f 461/1/2 459/28/2 517/29/2 519/6/2
f 462/1/5 520/6/5 518/29/5 460/28/5
f 463/1/2 461/28/2 519/29/2 521/6/2
f 464/1/5 522/6/5 520/29/5 462/28/5
f 465/1/2 463/28/2 521/29/2 523/6/2
f 466/1/5 524/6/5 522/29/5 464/28/5
f 467/1/2 465/28/2 523/29/2 525/6/2
f 468/1/5 526/6/5 524/29/5 466/28/5
f 469/1/2 467/28/2 525/29/2 527/6/2
f 470/1/5 528/6/5 526/29/5 468/28/5
f 471/1/2 469/28/2 527/29/2 529/6/2
f 472/1/5 530/6/5 528/29/5 470/28/5
f 473/1/2 471/28/2 529/29/2 531/6/2
f 474/1/5 532/6/5 530/29/5 472/28/5
f 475/1/2 473/28/2 531/29/2 533/6/2
f 476/1/5 534/6/5 532/29/5 474/28/5
f 477/1/2 475/28/2 533/29/2 535/6/2
f 535/1/4 533/6/4 534/29/4 536/28/4
f 478/1/5 536/6/5 534/29/5 476/28/5
f 479/1/2 477/28/2 535/29/2 537/6/2
f 537/1/4 535/6/4 536/29/4 538/28/4
f 480/1/5 538/6/5 536/29/5 478/28/5
f 479/1/6 537/6/6 538/29/6 480/28/6
f 491/1/2 489/28/2 557/29/2 556/6/2
f 489/6/3 490/29/3 554/28/3 557/1/3
f 556/1/4 557/6/4 554/29/4 558/28/4
f 492/1/5 558/6/5 554/29/5 490/28/5
f 493/1/2 491/28/2 556/29/2 559/6/2
f 559/1/4 556/6/4 558/29/4 560/28/4
f 494/1/5 560/6/5 558/29/5 492/28/5
f 495/1/2 493/28/2 559/29/2 561/6/2
f 496/1/5 562/6/5 560/29/5 494/28/5
f 497/1/2 495/28/2 561/29/2 563/6/2
f 498/1/5 564/6/5 562/29/5 496/28/5
f 499/1/2 497/28/2 563/29/2 565/6/2
f 500/1/5 566/6/5 564/29/5 498/28/5
f 501/1/2 499/28/2 565/29/2 567/6/2
f 502/1/5 568/6/5 566/29/5 500/28/5
f 503/1/2 501/28/2 567/29/2 569/6/2
f 504/1/5 570/6/5 568/29/5 502/28/5
f 505/1/2 503/28/2 569/29/2 571/6/2
f 506/1/5 572/6/5 570/29/5 504/28/5
f 507/1/2 505/28/2 571/29/2 573/6/2
f 508/1/5 574/6/5 572/29/5 506/28/5
f 509/1/2 507/28/2 573/29/2 575/6/2
f 510/1/5 576/6/5 574/29/5 508/28/5
f 511/1/2 509/28/2 575/29/2 577/6/2
f 512/1/5 578/6/5 576/29/5 510/28/5
f 511/1/6 577/6/6 578/29/6 512/28/6
f 513/1/2 514/28/2 580/29/2 579/6/2
f 514/6/3 515/29/3 581/28/3 580/1/3
f 516/1/5 582/6/5 581/29/5 515/28/5
f 517/1/2 513/28/2 579/29/2 583/6/2
f 518/1/5 584/6/5 582/29/5 516/28/5
f 519/1/2 517/28/2 583/29/2 585/6/2
f 520/1/5 586/6/5 584/29/5 518/28/5
f 521/1/2 519/28/2 585/29/2 587/6/2
f 522/1/5 588/6/5 586/29/5 520/28/5
f 523/1/2 521/28/2 587/29/2 589/6/2
f 524/1/5 590/6/5 588/29/5 522/28/5
f 525/1/2 523/28/2 589/29/2 591/6/2
f 526/1/5 592/6/5 590/29/5 524/28/5
f 527/1/2 525/28/2 591/29/2 593/6/2
f 528/1/5 594/6/5 592/29/5 526/28/5
f 529/1/2 527/28/2 593/29/2 595/6/2
f 530/1/5 596/6/5 594/29/5 528/28/5
f 531/1/2 529/28/2 595/29/2 597/6/2
f 532/1/5 598/6/5 596/29/5 530/28/5
f 533/1/2 531/28/2 597/29/2 599/6/2
f 599/1/4 597/6/4 598/29/4 600/28/4
f 534/1/5 600/6/5 598/29/5 532/28/5
f 533/1/6 599/6/6 600/29/6 534/28/6
f 561/1/2 559/28/2 625/29/2 624/6/2
f 559/6/3 560/29/3 622/28/3 625/1/3
f 624/1/4 625/6/4 622/29/4 626/28/4
f 562/1/5 626/6/5 622/29/5 560/28/5
f 563/1/2 561/28/2 624/29/2 627/6/2
f 564/1/5 628/6/5 626/29/5 562/28/5
f 565/1/2 563/28/2 627/29/2 629/6/2
f 566/1/5 630/6/5 628/29/5 564/28/5
f 567/1/2 565/28/2 629/29/2 631/6/2
f 568/1/5 632/6/5 630/29/5 566/28/5
f 569/1/2 567/28/2 631/29/2 633/6/2
f 570/1/5 634/6/5 632/29/5 568/28/5
f 571/1/2 569/28/2 633/29/2 635/6/2
f 572/1/5 636/6/5 634/29/5 570/28/5
f 573/1/2 571/28/2 635/29/2 637/6/2
f 574/1/5 638/6/5 636/29/5 572/28/5
f 575/1/2 573/28/2 637/29/2 639/6/2
f 576/1/5 640/6/5 638/29/5 574/28/5
f 577/1/2 575/28/2 639/29/2 641/6/2
f 578/1/5 642/6/5 640/29/5 576/28/5
f 577/1/6 641/6/6 642/29/6 578/28/6
f 579/1/2 580/28/2 644/29/2 643/6/2
f 580/6/3 581/29/3 645/28/3 644/1/3
f 582/1/5 646/6/5 645/29/5 581/28/5
f 583/1/2 579/28/2 643/29/2 647/6/2
f 584/1/5 648/6/5 646/29/5 582/28/5
f 585/1/2 583/28/2 647/29/2 649/6/2
f 586/1/5 650/6/5 648/29/5 584/28/5
f 587/1/2 585/28/2 649/29/2 651/6/2
f 588/1/5 652/6/5 650/29/5 586/28/5
f 589/1/2 587/28/2 651/29/2 653/6/2
f 590/1/5 654/6/5 652/29/5 588/28/5
f 591/1/2 589/28/2 653/29/2 655/6/2
f 592/1/5 656/6/5 654/29/5 590/28/5
f 593/1/2 591/28/2 655/29/2 657/6/2
f 594/1/5 658/6/5 656/29/5 592/28/5
f 595/1/2 593/28/2 657/29/2 659/6/2
f 596/1/5 660/6/5 658/29/5 594/28/5
f 597/1/2 595/28/2 659/29/2 661/6/2
f 598/1/5 662/6/5 660/29/5 596/28/5
f 597/1/6 661/6/6 662/29/6 598/28/6
f 627/1/2 624/28/2 689/29/2 688/6/2
f 624/6/3 626/29/3 686/28/3 689/1/3
f 628/1/5 690/6/5 686/29/5 626/28/5
f 629/1/2 627/28/2 688/29/2 691/6/2
f 630/1/5 692/6/5 690/29/5 628/28/5
f 631/1/2 629/28/2 691/29/2 693/6/2
f 632/1/5 694/6/5 692/29/5 630/28/5
f 633/1/2 631/28/2 693/29/2 695/6/2
f 634/1/5 696/6/5 694/29/5 632/28/5
f 635/1/2 633/28/2 695/29/2 697/6/2
f 636/1/5 698/6/5 696/29/5 634/28/5
f 637/1/2 635/28/2 697/29/2 699/6/2
f 638/1/5 700/6/5 698/29/5 636/28/5
f 639/1/2 637/28/2 699/29/2 701/6/2
f 640/1/5 702/6/5 700/29/5 638/28/5
f 641/1/2 639/28/2 701/29/2 703/6/2
f 642/1/5 704/6/5 702/29/5 640/28/5
f 641/1/6 703/6/6 704/29/6 642/28/6
f 643/1/2 644/28/2 706/29/2 705/6/2
f 644/6/3 645/29/3 707/28/3 706/1/3
f 646/1/5 708/6/5 707/29/5 645/28/5
f 647/1/2 643/28/2 705/29/2 709/6/2
f 648/1/5 710/6/5 708/29/5 646/28/5
f 649/1/2 647/28/2 709/29/2 711/6/2
f 650/1/5 712/6/5 710/29/5 648/28/5
f 651/1/2 649/28/2 711/29/2 713/6/2
f 652/1/5 714/6/5 712/29/5 650/28/5
f 653/1/2 651/28/2 713/29/2 715/6/2
f 654/1/5 716/6/5 714/29/5 652/28/5
f 655/1/2 653/28/2 715/29/2 717/6/2
f 656/1/5 718/6/5 716/29/5 654/28/5
f 657/1/2 655/28/2 717/29/2 719/6/2
f 658/1/5 720/6/5 718/29/5 656/28/5
f 659/1/2 657/28/2 719/29/2 721/6/2
f 660/1/5 722/6/5 720/29/5 658/28/5
f 661/1/2 659/28/2 721/29/2 723/6/2
f 662/1/5 724/6/5 722/29/5 660/28/5
f 661/1/6 723/6/6 724/29/6 662/28/6
f 688/1/2 689/28/2 749/29/2 748/6/2
f 689/6/3 686/29/3 746/28/3 749/1/3
f 690/1/5 750/6/5 746/29/5 686/28/5
f 691/1/2 688/28/2 748/29/2 751/6/2
f 692/1/5 752/6/5 750/29/5 690/28/5
f 693/1/2 691/28/2 751/29/2 753/6/2
f 694/1/5 754/6/5 752/29/5 692/28/5
f 695/1/2 693/28/2 753/29/2 755/6/2
f 696/1/5 756/6/5 754/29/5 694/28/5
f 697/1/2 695/28/2 755/29/2 757/6/2
f 698/1/5 758/6/5 756/29/5 696/28/5
f 699/1/2 697/28/2 757/29/2 759/6/2
f 700/1/5 760/6/5 758/29/5 698/28/5
f 701/1/2 699/28/2 759/29/2 761/6/2
f 702/1/5 762/6/5 760/29/5 700/28/5
f 703/1/2 701/28/2 761/29/2 763/6/2
f 704/1/5 764/6/5 762/29/5 702/28/5
f 703/1/6 763/6/6 764/29/6 704/28/6
f 705/1/2 706/28/2 766/29/2 765/6/2
f 706/6/3 707/29/3 767/28/3 766/1/3
f 708/1/5 768/6/5 767/29/5 707/28/5
f 709/1/2 705/28/2 765/29/2 769/6/2
f 710/1/5 770/6/5 768/29/5 708/28/5
f 711/1/2 709/28/2 769/29/2 771/6/2
f 712/1/5 772/6/5 770/29/5 710/28/5
f 713/1/2 711/28/2 771/29/2 773/6/2
f 714/1/5 774/6/5 772/29/5 712/28/5
f 715/1/2 713/28/2 773/29/2 775/6/2
f 716/1/5 776/6/5 774/29/5 714/28/5
f 717/1/2 715/28/2 775/29/2 777/6/2
f 718/1/5 778/6/5 776/29/5 716/28/5
f 719/1/2 717/28/2 777/29/2 779/6/2
f 720/1/5 780/6/5 778/29/5 718/28/5
f 721/1/2 719/28/2 779/29/2 781/6/2
f 722/1/5 782/6/5 780/29/5 720/28/5
f 723/1/2 721/28/2 781/29/2 783/6/2
f 724/1/5 784/6/5 782/29/5 722/28/5
f 723/1/6 783/6/6 784/29/6 724/28/6
f 748/1/2 749/28/2 913/29/2 912/6/2
f 749/6/3 746/29/3 886/28/3 913/1/3
f 750/1/5 914/6/5 886/29/5 746/28/5
f 751/1/2 748/28/2 912/29/2 915/6/2
f 752/1/5 916/6/5 914/29/5 750/28/5
f 753/1/2 751/28/2 915/29/2 917/6/2
f 754/1/5 918/6/5 916/29/5 752/28/5
f 755/1/2 753/28/2 917/29/2 919/6/2
f 756/1/5 920/6/5 918/29/5 754/28/5
f 757/1/2 755/28/2 919/29/2 921/6/2
f 758/1/5 922/6/5 920/29/5 756/28/5
f 759/1/2 757/28/2 921/29/2 923/6/2
f 760/1/5 924/6/5 922/29/5 758/28/5
f 761/1/2 759/28/2 923/29/2 925/6/2
f 762/1/5 926/6/5 924/29/5 760/28/5
f 763/1/2 761/28/2 925/29/2 927/6/2
f 764/1/5 928/6/5 926/29/5 762/28/5
f 763/1/6 927/6/6 928/29/6 764/28/6

g Stripped_Birch_Wood
usemtl stripped_birch_log
f 725/1/2 724/28/2 784/29/2 785/6/2
f 724/6/3 726/29/3 786/28/3 784/1/3
f 727/6/1 787/29/1 788/28/1 726/1/1
f 726/6/3 788/29/3 789/28/3 786/1/3
f 727/1/6 790/6/6 791/29/6 787/28/6
f 787/6/1 792/29/1 793/28/1 788/1/1
f 788/6/3 793/29/3 794/28/3 789/1/3
f 787/1/6 791/6/6 795/29/6 792/28/6
f 792/6/1 796/29/1 797/28/1 793/1/1
f 793/6/3 797/29/3 798/28/3 794/1/3
f 792/1/6 795/6/6 799/29/6 796/28/6
f 796/6/1 800/29/1 801/28/1 797/1/1
f 797/6/3 801/29/3 802/28/3 798/1/3
f 796/1/6 799/6/6 803/29/6 800/28/6
f 800/6/1 804/29/1 805/28/1 801/1/1
f 801/6/3 805/29/3 806/28/3 802/1/3
f 800/1/6 803/6/6 807/29/6 804/28/6
f 804/6/1 808/29/1 809/28/1 805/1/1
f 805/6/3 809/29/3 810/28/3 806/1/3
f 804/1/6 807/6/6 811/29/6 808/28/6
f 808/6/1 812/29/1 813/28/1 809/1/1
f 809/6/3 813/29/3 814/28/3 810/1/3
f 812/1/5 815/6/5 814/29/5 813/28/5
f 818/29/1 819/28/1 812/1/1 808/6/1
f 818/1/2 808/28/2 811/29/2 820/6/2
f 818/1/6 820/6/6 821/29/6 819/28/6
f 819/6/1 822/29/1 823/28/1 812/1/1
f 812/6/3 823/29/3 824/28/3 815/1/3
f 822/1/5 825/6/5 824/29/5 823/28/5
f 828/29/1 829/28/1 822/1/1 819/6/1
f 828/1/2 819/28/2 821/29/2 830/6/2
f 830/1/4 821/28/4 825/29/4 831/6/4
f 829/1/5 831/6/5 825/29/5 822/28/5
f 834/29/1 835/28/1 829/1/1 828/6/1
f 834/1/2 828/28/2 830/29/2 836/6/2
f 836/1/4 830/28/4 831/29/4 837/6/4
f 834/1/6 836/6/6 837/29/6 835/28/6
f 835/6/1 838/29/1 839/28/1 829/1/1
f 829/6/3 839/29/3 840/28/3 831/1/3
f 837/1/4 831/6/4 840/29/4 841/28/4
f 838/1/5 841/6/5 840/29/5 839/28/5
f 844/29/1 845/28/1 838/1/1 835/6/1
f 844/1/2 835/28/2 837/29/2 846/6/2
f 845/1/5 847/6/5 841/29/5 838/28/5
f 856/29/1 857/28/1 851/1/1 850/6/1
f 856/1/2 850/28/2 852/29/2 858/6/2
f 857/1/5 859/6/5 853/29/5 851/28/5
f 863/29/1 864/28/1 856/1/1 862/6/1
f 863/1/2 862/28/2 866/29/2 865/6/2
f 862/6/3 856/29/3 858/28/3 866/1/3
f 864/6/1 867/29/1 857/28/1 856/1/1
f 868/1/4 858/6/4 859/29/4 869/28/4
f 867/1/5 869/6/5 859/29/5 857/28/5
f 864/1/6 868/6/6 869/29/6 867/28/6
f 872/29/1 873/28/1 864/1/1 863/6/1
f 872/1/2 863/28/2 865/29/2 874/6/2
f 874/1/4 865/28/4 868/29/4 875/6/4
f 873/1/5 875/6/5 868/29/5 864/28/5
f 879/29/1 880/28/1 872/1/1 878/6/1
f 879/1/2 878/28/2 882/29/2 881/6/2
f 878/6/3 872/29/3 874/28/3 882/1/3
f 880/6/1 883/29/1 873/28/1 872/1/1
f 883/1/5 884/6/5 875/29/5 873/28/5
f 880/1/6 885/6/6 884/29/6 883/28/6
f 746/1/2 744/28/2 876/29/2 886/6/2
f 746/1/6 886/6/6 887/29/6 747/28/6
f 747/6/1 888/29/1 889/28/1 745/1/1
f 745/6/3 889/29/3 890/28/3 877/1/3
f 747/1/6 887/6/6 891/29/6 888/28/6
f 888/6/1 892/29/1 893/28/1 889/1/1
f 889/6/3 893/29/3 894/28/3 890/1/3
f 888/1/6 891/6/6 895/29/6 892/28/6
f 892/6/1 896/29/1 897/28/1 893/1/1
f 893/6/3 897/29/3 898/28/3 894/1/3
f 892/1/6 895/6/6 899/29/6 896/28/6
f 896/6/1 900/29/1 901/28/1 897/1/1
f 897/6/3 901/29/3 902/28/3 898/1/3
f 896/1/6 899/6/6 903/29/6 900/28/6
f 900/6/1 904/29/1 905/28/1 901/1/1
f 901/6/3 905/29/3 906/28/3 902/1/3
f 900/1/6 903/6/6 907/29/6 904/28/6
f 904/6/1 908/29/1 879/28/1 905/1/1
f 905/6/3 879/29/3 881/28/3 906/1/3
f 904/1/6 907/6/6 909/29/6 908/28/6
f 908/6/1 910/29/1 880/28/1 879/1/1
f 910/1/5 911/6/5 885/29/5 880/28/5
f 908/1/6 909/6/6 911/29/6 910/28/6

g Lectern
usemtl oak_planks
f 2/28/2 1/29/2 5/6/2 6/1/2
f 18/24/30 17/25/30 21/8/30 22/7/30
f 26/28/2 25/29/2 29/6/2 30/1/2
f 42/24/30 41/25/30 45/8/30 46/7/30

usemtl lectern_top
f 23/24/29 19/7/29 20/8/29 24/25/29
f 47/24/29 43/7/29 44/8/29 48/25/29

usemtl lectern_sides
f 12/3/6 11/17/6 9/19/6 10/6/6
f 16/2/3 14/5/3 13/18/3 15/16/3
f 20/28/43 19/29/43 17/23/43 18/20/43
f 19/21/6 23/23/6 21/19/6 17/16/6
f 24/20/44 22/15/44 21/19/44 23/23/44
f 20/21/3 18/16/3 22/19/3 24/23/3
f 36/3/6 35/17/6 33/19/6 34/6/6
f 40/2/3 38/5/3 37/18/3 39/16/3
f 44/28/43 43/29/43 41/23/43 42/20/43
f 43/21/6 47/23/6 45/19/6 41/16/6
f 48/20/44 46/15/44 45/19/44 47/23/44
f 44/21/3 42/16/3 46/19/3 48/23/3

usemtl lectern_base
f 3/28/6 7/29/6 5/25/6 1/24/6
f 4/15/3 2/13/3 6/14/3 8/19/3
f 4/9/4 3/10/4 1/6/4 2/1/4
f 8/15/1 6/13/1 5/14/1 7/19/1
f 7/28/5 3/1/5 4/6/5 8/29/5
f 27/28/6 31/29/6 29/25/6 25/24/6
f 28/15/3 26/13/3 30/14/3 32/19/3
f 28/9/4 27/10/4 25/6/4 26/1/4
f 32/15/1 30/13/1 29/14/1 31/19/1
f 31/28/5 27/1/5 28/6/5 32/29/5

usemtl lectern_front
f 16/27/4 12/26/4 10/11/4 14/12/4
f 15/23/1 13/6/1 9/4/1 11/22/1
f 40/27/4 36/26/4 34/11/4 38/12/4
f 39/23/1 37/6/1 33/4/1 35/22/1
